(kicad_symbol_lib (version 20211014) (generator kicad_symbol_editor)
  (symbol "B0505S-1WR3" (pin_names (offset 1.016)) (in_bom yes) (on_board yes)
    (property "Reference" "PS" (id 0) (at -12.7 6.35 0)
      (effects (font (size 1.27 1.27)) (justify left bottom))
    )
    (property "Value" "B0505S-1WR3" (id 1) (at -12.7 -7.62 0)
      (effects (font (size 1.27 1.27)) (justify left bottom))
    )
    (property "Footprint" "B0505S:CONV_B0505S-1WR3" (id 2) (at 0 0 0)
      (effects (font (size 1.27 1.27)) (justify left bottom) hide)
    )
    (property "Datasheet" "" (id 3) (at 0 0 0)
      (effects (font (size 1.27 1.27)) (justify left bottom) hide)
    )
    (property "MAXIMUM_PACKAGE_HEIGHT" "10.41 mm" (id 4) (at 0 0 0)
      (effects (font (size 1.27 1.27)) (justify left bottom) hide)
    )
    (property "MANUFACTURER" "Mornsun" (id 5) (at 0 0 0)
      (effects (font (size 1.27 1.27)) (justify left bottom) hide)
    )
    (property "PARTREV" "2018.06.29-A/2" (id 6) (at 0 0 0)
      (effects (font (size 1.27 1.27)) (justify left bottom) hide)
    )
    (property "STANDARD" "Manufacturer Recommendations" (id 7) (at 0 0 0)
      (effects (font (size 1.27 1.27)) (justify left bottom) hide)
    )
    (symbol "B0505S-1WR3_0_0"
      (rectangle (start -12.7 -5.08) (end 12.7 5.08)
        (stroke (width 0.254) (type default) (color 0 0 0 0))
        (fill (type background))
      )
      (pin power_in line (at -17.78 -2.54 0) (length 5.08)
        (name "GND" (effects (font (size 1.016 1.016))))
        (number "1" (effects (font (size 1.016 1.016))))
      )
      (pin power_in line (at -17.78 2.54 0) (length 5.08)
        (name "VIN" (effects (font (size 1.016 1.016))))
        (number "2" (effects (font (size 1.016 1.016))))
      )
      (pin power_in line (at 17.78 -2.54 180) (length 5.08)
        (name "0V" (effects (font (size 1.016 1.016))))
        (number "3" (effects (font (size 1.016 1.016))))
      )
      (pin power_in line (at 17.78 2.54 180) (length 5.08)
        (name "+VO" (effects (font (size 1.016 1.016))))
        (number "4" (effects (font (size 1.016 1.016))))
      )
    )
  )
)
