(footprint "CONV_B0505S-1WR3" (version 20211014) (generator pcbnew)
  (layer "F.Cu")
  (tedit 6251ACCE)
  (attr through_hole)
  (fp_text reference "REF**" (at -2.625 -4.135) (layer "F.SilkS")
    (effects (font (size 1 1) (thickness 0.15)))
    (tstamp f5bf5b4a-5213-48af-a5cd-0d67969d2de6)
  )
  (fp_text value "CONV_B0505S-1WR3" (at 4.36 4.135) (layer "F.Fab")
    (effects (font (size 1 1) (thickness 0.15)))
    (tstamp 89c9afdc-c346-4300-a392-5f9dd8c1e5bd)
  )
  (fp_line (start 5.8 -3) (end 5.8 3) (layer "F.SilkS") (width 0.127) (tstamp 5ff19d63-2cb4-438b-93c4-e66d37a05329))
  (fp_line (start -4.9 3) (end -5.8 3) (layer "F.SilkS") (width 0.127) (tstamp 616287d9-a51f-498c-8b91-be46a0aa3a7f))
  (fp_line (start -5.8 -3) (end 5.8 -3) (layer "F.SilkS") (width 0.127) (tstamp 637f12be-fa48-4ce4-96b2-04c21a8795c8))
  (fp_line (start -5.8 3) (end -5.8 -3) (layer "F.SilkS") (width 0.127) (tstamp a599509f-fbb9-4db4-9adf-9e96bab1138d))
  (fp_line (start 5.8 3) (end 4.9 3) (layer "F.SilkS") (width 0.127) (tstamp fa00d3f4-bb71-4b1d-aa40-ae9267e2c41f))
  (fp_circle (center -6.5 2.1) (end -6.4 2.1) (layer "F.SilkS") (width 0.2) (fill none) (tstamp 31f91ec8-56e4-4e08-9ccd-012652772211))
  (fp_line (start 6.05 -3.25) (end 6.05 3.25) (layer "F.CrtYd") (width 0.05) (tstamp 1cb22080-0f59-4c18-a6e6-8685ef44ec53))
  (fp_line (start -6.05 3.25) (end -6.05 -3.25) (layer "F.CrtYd") (width 0.05) (tstamp 235067e2-1686-40fe-a9a0-61704311b2b1))
  (fp_line (start 6.05 3.25) (end -6.05 3.25) (layer "F.CrtYd") (width 0.05) (tstamp 701e1517-e8cf-46f4-b538-98e721c97380))
  (fp_line (start -6.05 -3.25) (end 6.05 -3.25) (layer "F.CrtYd") (width 0.05) (tstamp 8bdea5f6-7a53-427a-92b8-fd15994c2e8c))
  (fp_line (start -5.8 3) (end 5.8 3) (layer "F.Fab") (width 0.127) (tstamp 14094ad2-b562-4efa-8c6f-51d7a3134345))
  (fp_line (start -5.8 -3) (end -5.8 3) (layer "F.Fab") (width 0.127) (tstamp 590fefcc-03e7-45d6-b6c9-e51a7c3c36c4))
  (fp_line (start 5.8 3) (end 5.8 -3) (layer "F.Fab") (width 0.127) (tstamp cbebc05a-c4dd-4baf-8c08-196e84e08b27))
  (fp_line (start -5.8 -3) (end 5.8 -3) (layer "F.Fab") (width 0.127) (tstamp f7447e92-4293-41c4-be3f-69b30aad1f17))
  (fp_circle (center -6.5 2.1) (end -6.4 2.1) (layer "F.Fab") (width 0.2) (fill none) (tstamp be41ac9e-b8ba-4089-983b-b84269707f1c))
  (pad "1" thru_hole rect (at -3.81 2.1) (size 1.508 1.508) (drill 1) (layers *.Cu *.Mask) (tstamp 8b7bbefd-8f78-41f8-809c-2534a5de3b39))
  (pad "2" thru_hole circle (at -1.27 2.1) (size 1.508 1.508) (drill 1) (layers *.Cu *.Mask) (tstamp 78f9c3d3-3556-46f6-9744-05ad54b330f0))
  (pad "3" thru_hole circle (at 1.27 2.1) (size 1.508 1.508) (drill 1) (layers *.Cu *.Mask) (tstamp 1427bb3f-0689-4b41-a816-cd79a5202fd0))
  (pad "4" thru_hole circle (at 3.81 2.1) (size 1.508 1.508) (drill 1) (layers *.Cu *.Mask) (tstamp 59cb2966-1e9c-4b3b-b3c8-7499378d8dde))
  (model "${KIPRJMOD}/Mazda.PCB.VolCntr.B0505S/B0505S-1WR3.step"
    (offset (xyz 0 0 0))
    (scale (xyz 1 1 1))
    (rotate (xyz -90 0 0))
  )
)
