(module "DIP794W56P254L946H432Q8N" (layer F.Cu)
  (descr "8-Lead Plastic Dual In-line (P) – 300 mil (PDIP)")
  (tags "Integrated Circuit")
  (fp_text reference IC** (at 0 0) (layer F.SilkS)
    (effects (font (size 1.27 1.27) (thickness 0.254)))
  )
  (fp_text user %R (at 0 0) (layer F.Fab)
    (effects (font (size 1.27 1.27) (thickness 0.254)))
  )
  (fp_text value "DIP794W56P254L946H432Q8N" (at 0 0) (layer F.SilkS) hide
    (effects (font (size 1.27 1.27) (thickness 0.254)))
  )
  (fp_line (start -4.96 -5.14) (end 4.96 -5.14) (layer F.CrtYd) (width 0.05))
  (fp_line (start 4.96 -5.14) (end 4.96 5.14) (layer F.CrtYd) (width 0.05))
  (fp_line (start 4.96 5.14) (end -4.96 5.14) (layer F.CrtYd) (width 0.05))
  (fp_line (start -4.96 5.14) (end -4.96 -5.14) (layer F.CrtYd) (width 0.05))
  (fp_line (start -3.3 -4.89) (end 3.3 -4.89) (layer F.Fab) (width 0.1))
  (fp_line (start 3.3 -4.89) (end 3.3 4.89) (layer F.Fab) (width 0.1))
  (fp_line (start 3.3 4.89) (end -3.3 4.89) (layer F.Fab) (width 0.1))
  (fp_line (start -3.3 4.89) (end -3.3 -4.89) (layer F.Fab) (width 0.1))
  (fp_line (start -3.3 -3.62) (end -2.03 -4.89) (layer F.Fab) (width 0.1))
  (fp_line (start -4.55 -4.89) (end 3.3 -4.89) (layer F.SilkS) (width 0.2))
  (fp_line (start -3.3 4.89) (end 3.3 4.89) (layer F.SilkS) (width 0.2))
  (pad 1 thru_hole rect (at -3.97 -3.81) (size 1.16 1.16) (drill 0.76) (layers *.Cu *.Mask))
  (pad 2 thru_hole circle (at -3.97 -1.27) (size 1.16 1.16) (drill 0.76) (layers *.Cu *.Mask))
  (pad 3 thru_hole circle (at -3.97 1.27) (size 1.16 1.16) (drill 0.76) (layers *.Cu *.Mask))
  (pad 4 thru_hole circle (at -3.97 3.81) (size 1.16 1.16) (drill 0.76) (layers *.Cu *.Mask))
  (pad 5 thru_hole circle (at 3.97 3.81) (size 1.16 1.16) (drill 0.76) (layers *.Cu *.Mask))
  (pad 6 thru_hole circle (at 3.97 1.27) (size 1.16 1.16) (drill 0.76) (layers *.Cu *.Mask))
  (pad 7 thru_hole circle (at 3.97 -1.27) (size 1.16 1.16) (drill 0.76) (layers *.Cu *.Mask))
  (pad 8 thru_hole circle (at 3.97 -3.81) (size 1.16 1.16) (drill 0.76) (layers *.Cu *.Mask))
  (model MCP2551-E_P.stp
    (at (xyz 0 0 0))
    (scale (xyz 1 1 1))
    (rotate (xyz 0 0 0))
  )
)
