EESchema Schematic File Version 4
EELAYER 30 0
EELAYER END
$Descr A4 11693 8268
encoding utf-8
Sheet 1 1
Title "Sterowanie modułem BM64 przez Atmega328"
Date "2021-09-10"
Rev "1"
Comp ""
Comment1 ""
Comment2 ""
Comment3 ""
Comment4 ""
$EndDescr
$Comp
L Device:R R7
U 1 1 6133551B
P 3100 3600
F 0 "R7" H 3170 3646 50  0000 L CNN
F 1 "10k" H 3150 3600 50  0000 L CNN
F 2 "Resistor_THT:R_Axial_DIN0207_L6.3mm_D2.5mm_P10.16mm_Horizontal" V 3030 3600 50  0001 C CNN
F 3 "~" H 3100 3600 50  0001 C CNN
	1    3100 3600
	0    1    1    0   
$EndComp
Text GLabel 3750 3850 2    50   Input ~ 0
DTR
$Comp
L Device:D_Shockley D1
U 1 1 6134A3F7
P 1600 950
F 0 "D1" V 1554 1030 50  0000 L CNN
F 1 "D_Shockley" V 1645 1030 50  0000 L CNN
F 2 "Diode_THT:D_DO-15_P10.16mm_Horizontal" H 1600 950 50  0001 C CNN
F 3 "~" H 1600 950 50  0001 C CNN
	1    1600 950 
	0    1    1    0   
$EndComp
Text GLabel 1300 900  0    50   Input ~ 0
CAR_VCC
$Comp
L power:Earth #PWR02
U 1 1 6134C48E
P 1400 1550
F 0 "#PWR02" H 1400 1300 50  0001 C CNN
F 1 "Earth" H 1400 1400 50  0001 C CNN
F 2 "" H 1400 1550 50  0001 C CNN
F 3 "~" H 1400 1550 50  0001 C CNN
	1    1400 1550
	1    0    0    -1  
$EndComp
Wire Wire Line
	1600 1150 1600 1100
Wire Wire Line
	1600 1250 1600 1150
Connection ~ 1600 1150
$Comp
L Device:R R3
U 1 1 6134E5D6
P 3000 950
F 0 "R3" H 3070 996 50  0000 L CNN
F 1 "1k" H 3070 905 50  0000 L CNN
F 2 "Resistor_THT:R_Axial_DIN0207_L6.3mm_D2.5mm_P10.16mm_Horizontal" V 2930 950 50  0001 C CNN
F 3 "~" H 3000 950 50  0001 C CNN
	1    3000 950 
	1    0    0    -1  
$EndComp
$Comp
L Device:R R4
U 1 1 6134F443
P 3000 1350
F 0 "R4" H 3070 1396 50  0000 L CNN
F 1 "2,2k" H 3070 1305 50  0000 L CNN
F 2 "Resistor_THT:R_Axial_DIN0207_L6.3mm_D2.5mm_P10.16mm_Horizontal" V 2930 1350 50  0001 C CNN
F 3 "~" H 3000 1350 50  0001 C CNN
	1    3000 1350
	1    0    0    -1  
$EndComp
Wire Wire Line
	2900 800  3000 800 
Wire Wire Line
	3000 1500 3000 1550
$Comp
L Device:D_Zener D3
U 1 1 61350A5A
P 3300 1350
F 0 "D3" V 3254 1430 50  0000 L CNN
F 1 "4,7V" V 3345 1430 50  0000 L CNN
F 2 "Diode_THT:D_DO-15_P10.16mm_Horizontal" H 3300 1350 50  0001 C CNN
F 3 "~" H 3300 1350 50  0001 C CNN
	1    3300 1350
	0    1    1    0   
$EndComp
Wire Wire Line
	3300 1500 3300 1550
Wire Wire Line
	3300 1550 3000 1550
Wire Wire Line
	3000 1100 3000 1200
Wire Wire Line
	3300 1200 3000 1200
Connection ~ 3000 1200
$Comp
L Device:CP C2
U 1 1 61353C99
P 3700 1350
F 0 "C2" H 3818 1396 50  0000 L CNN
F 1 "10yF" H 3818 1305 50  0000 L CNN
F 2 "Capacitor_THT:CP_Radial_D5.0mm_P2.00mm" H 3738 1200 50  0001 C CNN
F 3 "~" H 3700 1350 50  0001 C CNN
	1    3700 1350
	1    0    0    -1  
$EndComp
$Comp
L Device:C C5
U 1 1 6135421B
P 4100 1350
F 0 "C5" H 4215 1396 50  0000 L CNN
F 1 "100nf" H 4215 1305 50  0000 L CNN
F 2 "Capacitor_THT:CP_Radial_Tantal_D4.5mm_P2.50mm" H 4138 1200 50  0001 C CNN
F 3 "~" H 4100 1350 50  0001 C CNN
	1    4100 1350
	1    0    0    -1  
$EndComp
Wire Wire Line
	3300 1200 3700 1200
Connection ~ 3300 1200
Wire Wire Line
	4100 1200 3700 1200
Connection ~ 3700 1200
Wire Wire Line
	3300 1550 3700 1550
Wire Wire Line
	3700 1550 3700 1500
Connection ~ 3300 1550
Wire Wire Line
	3700 1550 4100 1550
Wire Wire Line
	4100 1550 4100 1500
Connection ~ 3700 1550
Text GLabel 4100 950  2    50   Input ~ 0
SWC_ADC
$Comp
L power:+5V #PWR011
U 1 1 6135B6E7
P 3250 3600
F 0 "#PWR011" H 3250 3450 50  0001 C CNN
F 1 "+5V" H 3265 3773 50  0000 C CNN
F 2 "" H 3250 3600 50  0001 C CNN
F 3 "" H 3250 3600 50  0001 C CNN
	1    3250 3600
	1    0    0    -1  
$EndComp
$Comp
L Device:Crystal Crystal1
U 1 1 61364F8E
P 2600 3100
F 0 "Crystal1" V 2554 3231 50  0000 L CNN
F 1 "16 Mhz" V 2645 3231 50  0000 L CNN
F 2 "Crystal:Crystal_HC18-U_Vertical" H 2600 3100 50  0001 C CNN
F 3 "~" H 2600 3100 50  0001 C CNN
	1    2600 3100
	0    1    1    0   
$EndComp
Wire Wire Line
	2600 2950 2350 2950
Wire Wire Line
	2600 3250 2450 3250
Wire Wire Line
	2450 3250 2450 3050
Wire Wire Line
	2450 3050 2350 3050
$Comp
L Device:C C4
U 1 1 61367A4D
P 3100 3250
F 0 "C4" V 2848 3250 50  0000 C CNN
F 1 "22pf" V 2939 3250 50  0000 C CNN
F 2 "Capacitor_THT:CP_Radial_Tantal_D4.5mm_P2.50mm" H 3138 3100 50  0001 C CNN
F 3 "~" H 3100 3250 50  0001 C CNN
	1    3100 3250
	0    -1   -1   0   
$EndComp
$Comp
L Device:C C3
U 1 1 61368DAA
P 3100 2950
F 0 "C3" V 2848 2950 50  0000 C CNN
F 1 "22pf" V 2939 2950 50  0000 C CNN
F 2 "Capacitor_THT:CP_Radial_Tantal_D4.5mm_P2.50mm" H 3138 2800 50  0001 C CNN
F 3 "~" H 3100 2950 50  0001 C CNN
	1    3100 2950
	0    -1   -1   0   
$EndComp
Wire Wire Line
	2950 2950 2600 2950
Connection ~ 2600 2950
Wire Wire Line
	2600 3250 2950 3250
Connection ~ 2600 3250
$Comp
L power:Earth #PWR014
U 1 1 61370A02
P 3300 3250
F 0 "#PWR014" H 3300 3000 50  0001 C CNN
F 1 "Earth" H 3300 3100 50  0001 C CNN
F 2 "" H 3300 3250 50  0001 C CNN
F 3 "~" H 3300 3250 50  0001 C CNN
	1    3300 3250
	1    0    0    -1  
$EndComp
Wire Wire Line
	3250 2950 3300 2950
Wire Wire Line
	3300 2950 3300 3250
Wire Wire Line
	3300 3250 3250 3250
Connection ~ 3300 3250
$Comp
L pspice:CAP C1
U 1 1 613747B0
P 900 2350
F 0 "C1" V 1215 2350 50  0000 C CNN
F 1 "100nf" V 1124 2350 50  0000 C CNN
F 2 "Capacitor_THT:CP_Radial_Tantal_D4.5mm_P2.50mm" H 900 2350 50  0001 C CNN
F 3 "~" H 900 2350 50  0001 C CNN
	1    900  2350
	0    1    1    0   
$EndComp
$Comp
L power:Earth #PWR01
U 1 1 613753D8
P 650 2400
F 0 "#PWR01" H 650 2150 50  0001 C CNN
F 1 "Earth" H 650 2250 50  0001 C CNN
F 2 "" H 650 2400 50  0001 C CNN
F 3 "~" H 650 2400 50  0001 C CNN
	1    650  2400
	1    0    0    -1  
$EndComp
Wire Wire Line
	650  2350 650  2400
$Comp
L power:Earth #PWR06
U 1 1 6137F454
P 1750 5050
F 0 "#PWR06" H 1750 4800 50  0001 C CNN
F 1 "Earth" H 1750 4900 50  0001 C CNN
F 2 "" H 1750 5050 50  0001 C CNN
F 3 "~" H 1750 5050 50  0001 C CNN
	1    1750 5050
	1    0    0    -1  
$EndComp
Wire Wire Line
	1750 1900 1750 2050
Wire Wire Line
	1750 1900 1850 1900
Wire Wire Line
	1850 1900 1850 2050
$Comp
L power:+5V #PWR028
U 1 1 6138AFF7
P 8250 1800
F 0 "#PWR028" H 8250 1650 50  0001 C CNN
F 1 "+5V" H 8265 1973 50  0000 C CNN
F 2 "" H 8250 1800 50  0001 C CNN
F 3 "" H 8250 1800 50  0001 C CNN
	1    8250 1800
	0    1    1    0   
$EndComp
$Comp
L power:Earth #PWR029
U 1 1 6138BD62
P 8250 1900
F 0 "#PWR029" H 8250 1650 50  0001 C CNN
F 1 "Earth" H 8250 1750 50  0001 C CNN
F 2 "" H 8250 1900 50  0001 C CNN
F 3 "~" H 8250 1900 50  0001 C CNN
	1    8250 1900
	1    0    0    -1  
$EndComp
$Comp
L power:Earth_Protective #PWR031
U 1 1 613A0A07
P 9700 2050
F 0 "#PWR031" H 9950 1800 50  0001 C CNN
F 1 "Earth_Protective" H 10150 1900 50  0001 C CNN
F 2 "" H 9700 1950 50  0001 C CNN
F 3 "~" H 9700 1950 50  0001 C CNN
	1    9700 2050
	1    0    0    -1  
$EndComp
$Comp
L Regulator_Linear:LM1117-3.3 U6
U 1 1 613A744D
P 9700 1600
F 0 "U6" H 9700 1842 50  0000 C CNN
F 1 "LM1117-3.3" H 9700 1751 50  0000 C CNN
F 2 "Package_TO_SOT_THT:TO-220-3_Vertical" H 9700 1600 50  0001 C CNN
F 3 "http://www.ti.com/lit/ds/symlink/lm1117.pdf" H 9700 1600 50  0001 C CNN
	1    9700 1600
	1    0    0    -1  
$EndComp
$Comp
L Device:CP C9
U 1 1 613AA398
P 8700 1750
F 0 "C9" H 8818 1796 50  0000 L CNN
F 1 "10yF" H 8818 1705 50  0000 L CNN
F 2 "Capacitor_THT:CP_Radial_D5.0mm_P2.00mm" H 8738 1600 50  0001 C CNN
F 3 "~" H 8700 1750 50  0001 C CNN
	1    8700 1750
	1    0    0    -1  
$EndComp
Wire Wire Line
	9700 2050 9700 1900
$Comp
L Device:C C10
U 1 1 613B7481
P 10200 1750
F 0 "C10" H 10315 1796 50  0000 L CNN
F 1 "100yF" H 10315 1705 50  0000 L CNN
F 2 "Capacitor_THT:CP_Radial_D5.0mm_P2.00mm" H 10238 1600 50  0001 C CNN
F 3 "~" H 10200 1750 50  0001 C CNN
	1    10200 1750
	1    0    0    -1  
$EndComp
$Comp
L Device:D_Shockley D5
U 1 1 613B8EA6
P 9700 1250
F 0 "D5" H 9700 1467 50  0000 C CNN
F 1 "D_Shockley" H 9700 1376 50  0000 C CNN
F 2 "Diode_THT:D_DO-15_P10.16mm_Horizontal" H 9700 1250 50  0001 C CNN
F 3 "~" H 9700 1250 50  0001 C CNN
	1    9700 1250
	1    0    0    -1  
$EndComp
Connection ~ 9700 2050
$Comp
L power:+3.3V #PWR032
U 1 1 613C3FED
P 10850 1600
F 0 "#PWR032" H 10850 1450 50  0001 C CNN
F 1 "+3.3V" H 10865 1773 50  0000 C CNN
F 2 "" H 10850 1600 50  0001 C CNN
F 3 "" H 10850 1600 50  0001 C CNN
	1    10850 1600
	1    0    0    -1  
$EndComp
Connection ~ 8700 1600
Connection ~ 10200 1600
Wire Wire Line
	10000 1600 10200 1600
Wire Wire Line
	10200 1900 10200 2050
Wire Wire Line
	9700 2050 10200 2050
Wire Wire Line
	8700 1900 8700 2050
$Comp
L B0505S-1W:B0505S-1W PS1
U 1 1 61341B44
P 8150 1900
F 0 "PS1" H 8492 1335 50  0000 C CNN
F 1 "B0505S-1W" H 8492 1426 50  0000 C CNN
F 2 "B0505S-1W:B0505S1W" H 8900 2000 50  0001 L CNN
F 3 "https://www.mornsun-power.com/uploads/pdf/B_D-1W.pdf" H 8900 1900 50  0001 L CNN
F 4 "1W, FIXED INPUT ISOLATED & UNREGULATED SINGLE OUTPUT DC-DC CONVERTER" H 8900 1800 50  0001 L CNN "Description"
F 5 "10.41" H 8900 1700 50  0001 L CNN "Height"
F 6 "Mornsun" H 8900 1600 50  0001 L CNN "Manufacturer_Name"
F 7 "B0505S-1W" H 8900 1500 50  0001 L CNN "Manufacturer_Part_Number"
F 8 "" H 8900 1400 50  0001 L CNN "Mouser Part Number"
F 9 "" H 8900 1300 50  0001 L CNN "Mouser Price/Stock"
F 10 "" H 8900 1200 50  0001 L CNN "Arrow Part Number"
F 11 "" H 8900 1100 50  0001 L CNN "Arrow Price/Stock"
	1    8150 1900
	-1   0    0    1   
$EndComp
Wire Wire Line
	8150 1800 8250 1800
Wire Wire Line
	8150 1900 8250 1900
Wire Wire Line
	8150 1600 8700 1600
Wire Wire Line
	8150 1700 8500 1700
Wire Wire Line
	8500 1700 8500 2050
Wire Wire Line
	8500 2050 8700 2050
Connection ~ 8700 2050
$Comp
L Transistor_BJT:BD139 Q3
U 1 1 6141901A
P 5500 2350
F 0 "Q3" H 5692 2396 50  0000 L CNN
F 1 "BD139" H 5692 2305 50  0000 L CNN
F 2 "Package_TO_SOT_THT:TO-126-3_Vertical" H 5700 2275 50  0001 L CIN
F 3 "http://www.st.com/internet/com/TECHNICAL_RESOURCES/TECHNICAL_LITERATURE/DATASHEET/CD00001225.pdf" H 5500 2350 50  0001 L CNN
	1    5500 2350
	1    0    0    -1  
$EndComp
$Comp
L power:+5V #PWR022
U 1 1 6141BD5C
P 6300 1300
F 0 "#PWR022" H 6300 1150 50  0001 C CNN
F 1 "+5V" H 6315 1473 50  0000 C CNN
F 2 "" H 6300 1300 50  0001 C CNN
F 3 "" H 6300 1300 50  0001 C CNN
	1    6300 1300
	1    0    0    -1  
$EndComp
Wire Wire Line
	6300 1300 6200 1300
Wire Wire Line
	6300 2050 6050 2050
Wire Wire Line
	5750 2050 5600 2050
Wire Wire Line
	5600 2050 5600 2150
Connection ~ 5600 2050
$Comp
L power:Earth #PWR020
U 1 1 6142865F
P 5600 2650
F 0 "#PWR020" H 5600 2400 50  0001 C CNN
F 1 "Earth" H 5600 2500 50  0001 C CNN
F 2 "" H 5600 2650 50  0001 C CNN
F 3 "~" H 5600 2650 50  0001 C CNN
	1    5600 2650
	1    0    0    -1  
$EndComp
Wire Wire Line
	5600 2550 5600 2650
$Comp
L Device:R R12
U 1 1 6142AD49
P 5050 2350
F 0 "R12" V 4843 2350 50  0000 C CNN
F 1 "R" V 4934 2350 50  0000 C CNN
F 2 "Resistor_THT:R_Axial_DIN0207_L6.3mm_D2.5mm_P10.16mm_Horizontal" V 4980 2350 50  0001 C CNN
F 3 "~" H 5050 2350 50  0001 C CNN
	1    5050 2350
	0    1    1    0   
$EndComp
Wire Wire Line
	5200 2350 5300 2350
$Comp
L Connector_Generic:Conn_02x10_Odd_Even J3
U 1 1 61439841
P 7450 3350
F 0 "J3" H 7500 3967 50  0000 C CNN
F 1 "Conn_02x10_Odd_Even" H 7500 3876 50  0000 C CNN
F 2 "Connector_PinHeader_2.54mm:PinHeader_2x10_P2.54mm_Vertical" H 7450 3350 50  0001 C CNN
F 3 "~" H 7450 3350 50  0001 C CNN
	1    7450 3350
	-1   0    0    -1  
$EndComp
$Comp
L Connector_Generic:Conn_02x06_Odd_Even J4
U 1 1 6143D6B8
P 9150 3750
F 0 "J4" H 9200 4167 50  0000 C CNN
F 1 "Conn_02x06_Odd_Even" H 9200 4076 50  0000 C CNN
F 2 "Connector_PinHeader_2.54mm:PinHeader_2x06_P2.54mm_Vertical" H 9150 3750 50  0001 C CNN
F 3 "~" H 9150 3750 50  0001 C CNN
	1    9150 3750
	1    0    0    -1  
$EndComp
$Comp
L Connector:Conn_01x03_Male J6
U 1 1 6143F71D
P 9750 3000
F 0 "J6" H 9722 2932 50  0000 R CNN
F 1 "Conn_01x03_Male" H 9722 3023 50  0000 R CNN
F 2 "Connector_PinHeader_2.54mm:PinHeader_1x03_P2.54mm_Vertical" H 9750 3000 50  0001 C CNN
F 3 "~" H 9750 3000 50  0001 C CNN
	1    9750 3000
	-1   0    0    1   
$EndComp
Text GLabel 6850 3150 0    50   Input ~ 0
UART_Rx
Text GLabel 6850 3050 0    50   Input ~ 0
UART_Tx
Text GLabel 6850 3450 0    50   Input ~ 0
SDI
Text GLabel 6850 3550 0    50   Input ~ 0
SDO
$Comp
L power:Earth_Protective #PWR030
U 1 1 614698B5
P 8550 4000
F 0 "#PWR030" H 8800 3750 50  0001 C CNN
F 1 "Earth_Protective" H 9000 3850 50  0001 C CNN
F 2 "" H 8550 3900 50  0001 C CNN
F 3 "~" H 8550 3900 50  0001 C CNN
	1    8550 4000
	1    0    0    -1  
$EndComp
$Comp
L power:Earth_Protective #PWR026
U 1 1 6146A07D
P 6850 2650
F 0 "#PWR026" H 7100 2400 50  0001 C CNN
F 1 "Earth_Protective" H 7300 2500 50  0001 C CNN
F 2 "" H 6850 2550 50  0001 C CNN
F 3 "~" H 6850 2550 50  0001 C CNN
	1    6850 2650
	1    0    0    -1  
$EndComp
Wire Wire Line
	6850 2650 7150 2650
Wire Wire Line
	7150 2650 7150 2950
Wire Wire Line
	7150 2650 7650 2650
Wire Wire Line
	7650 2650 7650 2950
Connection ~ 7150 2650
Text GLabel 8050 3050 2    50   Input ~ 0
MFB
Text GLabel 8050 3150 2    50   Input ~ 0
INT
Text GLabel 8050 3250 2    50   Input ~ 0
RST
Text GLabel 8050 3350 2    50   Input ~ 0
LRCL
Text GLabel 8050 3450 2    50   Input ~ 0
BCLK
$Comp
L power:+3.3V #PWR027
U 1 1 6147453C
P 8050 3750
F 0 "#PWR027" H 8050 3600 50  0001 C CNN
F 1 "+3.3V" V 8065 3878 50  0000 L CNN
F 2 "" H 8050 3750 50  0001 C CNN
F 3 "" H 8050 3750 50  0001 C CNN
	1    8050 3750
	0    1    1    0   
$EndComp
Wire Wire Line
	7650 3650 8550 3650
Wire Wire Line
	8550 3650 8550 4000
Wire Wire Line
	8550 4000 6850 4000
Wire Wire Line
	6850 4000 6850 3650
Connection ~ 8550 4000
Wire Wire Line
	8050 3450 7650 3450
Wire Wire Line
	8050 3350 7650 3350
Wire Wire Line
	8050 3250 7650 3250
Wire Wire Line
	8050 3150 7650 3150
Wire Wire Line
	8050 3050 7650 3050
Wire Wire Line
	8050 3750 7650 3750
Text GLabel 9300 2900 0    50   Input ~ 0
AOHPR
Text GLabel 9300 3000 0    50   Input ~ 0
AOHPM
Text GLabel 9300 3100 0    50   Input ~ 0
AOHPL
$Comp
L pspice:CAP C6
U 1 1 61332E33
P 3450 3850
F 0 "C6" V 3765 3850 50  0000 C CNN
F 1 "100nf" V 3674 3850 50  0000 C CNN
F 2 "Capacitor_THT:CP_Radial_Tantal_D4.5mm_P2.50mm" H 3450 3850 50  0001 C CNN
F 3 "~" H 3450 3850 50  0001 C CNN
	1    3450 3850
	0    -1   -1   0   
$EndComp
Wire Wire Line
	3700 3850 3750 3850
Wire Wire Line
	3400 4250 2350 4250
Wire Wire Line
	2350 4350 3300 4350
$Comp
L Connector:Conn_01x03_Male J5
U 1 1 6139BAB0
P 9750 2650
F 0 "J5" H 9722 2582 50  0000 R CNN
F 1 "Conn_01x03_Male" H 9722 2673 50  0000 R CNN
F 2 "Connector_PinHeader_2.54mm:PinHeader_1x03_P2.54mm_Vertical" H 9750 2650 50  0001 C CNN
F 3 "~" H 9750 2650 50  0001 C CNN
	1    9750 2650
	-1   0    0    1   
$EndComp
Wire Wire Line
	9550 2900 9500 2900
Wire Wire Line
	9500 2900 9500 2550
Wire Wire Line
	9500 2550 9550 2550
Wire Wire Line
	9550 3000 9450 3000
Wire Wire Line
	9450 3000 9450 2650
Wire Wire Line
	9450 2650 9550 2650
Wire Wire Line
	9550 3100 9400 3100
Wire Wire Line
	9400 3100 9400 2750
Wire Wire Line
	9400 2750 9550 2750
Wire Wire Line
	9500 2900 9300 2900
Connection ~ 9500 2900
Wire Wire Line
	9300 3000 9450 3000
Connection ~ 9450 3000
Wire Wire Line
	9300 3100 9400 3100
Connection ~ 9400 3100
$Comp
L Isolator:6N137 U4
U 1 1 613BAA2C
P 5350 6850
F 0 "U4" H 5350 7317 50  0000 C CNN
F 1 "6N137" H 5350 7226 50  0000 C CNN
F 2 "Package_DIP:DIP-8_W7.62mm_LongPads" H 5350 6350 50  0001 C CNN
F 3 "https://docs.broadcom.com/docs/AV02-0940EN" H 4500 7400 50  0001 C CNN
	1    5350 6850
	1    0    0    -1  
$EndComp
$Comp
L power:+5V #PWR015
U 1 1 613BFBB6
P 4700 6250
F 0 "#PWR015" H 4700 6100 50  0001 C CNN
F 1 "+5V" H 4715 6423 50  0000 C CNN
F 2 "" H 4700 6250 50  0001 C CNN
F 3 "" H 4700 6250 50  0001 C CNN
	1    4700 6250
	1    0    0    -1  
$EndComp
$Comp
L Device:Q_PNP_ECB Q1
U 1 1 613C3616
P 4600 6450
F 0 "Q1" H 4791 6404 50  0000 L CNN
F 1 "BC640" H 4791 6495 50  0000 L CNN
F 2 "Package_TO_SOT_THT:TO-92S_Wide" H 4800 6550 50  0001 C CNN
F 3 "~" H 4600 6450 50  0001 C CNN
	1    4600 6450
	1    0    0    1   
$EndComp
$Comp
L Device:R R10
U 1 1 613D6E80
P 4850 6850
F 0 "R10" V 4643 6850 50  0000 C CNN
F 1 "330" V 4734 6850 50  0000 C CNN
F 2 "Resistor_THT:R_Axial_DIN0207_L6.3mm_D2.5mm_P10.16mm_Horizontal" V 4780 6850 50  0001 C CNN
F 3 "~" H 4850 6850 50  0001 C CNN
	1    4850 6850
	0    1    1    0   
$EndComp
$Comp
L Device:R R8
U 1 1 613EDE25
P 4400 6250
F 0 "R8" H 4330 6204 50  0000 R CNN
F 1 "4,7k" H 4330 6295 50  0000 R CNN
F 2 "Resistor_THT:R_Axial_DIN0207_L6.3mm_D2.5mm_P10.16mm_Horizontal" V 4330 6250 50  0001 C CNN
F 3 "~" H 4400 6250 50  0001 C CNN
	1    4400 6250
	-1   0    0    1   
$EndComp
Wire Wire Line
	4400 6400 4400 6450
Wire Wire Line
	4700 6650 4700 6850
Wire Wire Line
	5000 6850 5050 6850
$Comp
L Device:R R15
U 1 1 6140B691
P 5900 6700
F 0 "R15" H 5830 6654 50  0000 R CNN
F 1 "330" H 5830 6745 50  0000 R CNN
F 2 "Resistor_THT:R_Axial_DIN0207_L6.3mm_D2.5mm_P10.16mm_Horizontal" V 5830 6700 50  0001 C CNN
F 3 "~" H 5900 6700 50  0001 C CNN
	1    5900 6700
	-1   0    0    1   
$EndComp
$Comp
L power:+3.3V #PWR023
U 1 1 6140C9B7
P 6450 6550
F 0 "#PWR023" H 6450 6400 50  0001 C CNN
F 1 "+3.3V" V 6465 6678 50  0000 L CNN
F 2 "" H 6450 6550 50  0001 C CNN
F 3 "" H 6450 6550 50  0001 C CNN
	1    6450 6550
	0    1    1    0   
$EndComp
Wire Wire Line
	5750 6550 5750 6650
Wire Wire Line
	5750 6650 5650 6650
Wire Wire Line
	5750 6650 5750 6750
Wire Wire Line
	5750 6750 5650 6750
Connection ~ 5750 6650
Text GLabel 5800 6950 2    50   Input ~ 0
UART_Rx
Wire Wire Line
	5650 6850 5800 6850
$Comp
L power:Earth_Protective #PWR021
U 1 1 614294CA
P 6300 7050
F 0 "#PWR021" H 6550 6800 50  0001 C CNN
F 1 "Earth_Protective" H 6750 6900 50  0001 C CNN
F 2 "" H 6300 6950 50  0001 C CNN
F 3 "~" H 6300 6950 50  0001 C CNN
	1    6300 7050
	1    0    0    -1  
$EndComp
$Comp
L power:Earth #PWR016
U 1 1 6144144E
P 4700 7050
F 0 "#PWR016" H 4700 6800 50  0001 C CNN
F 1 "Earth" H 4700 6900 50  0001 C CNN
F 2 "" H 4700 7050 50  0001 C CNN
F 3 "~" H 4700 7050 50  0001 C CNN
	1    4700 7050
	1    0    0    -1  
$EndComp
Wire Wire Line
	4700 7050 5050 7050
Text GLabel 7000 4700 2    50   Input ~ 0
UART_Tx
$Comp
L Device:R R17
U 1 1 6145676E
P 7000 4900
F 0 "R17" H 6930 4854 50  0000 R CNN
F 1 "4,7k" H 6930 4945 50  0000 R CNN
F 2 "Resistor_THT:R_Axial_DIN0207_L6.3mm_D2.5mm_P10.16mm_Horizontal" V 6930 4900 50  0001 C CNN
F 3 "~" H 7000 4900 50  0001 C CNN
	1    7000 4900
	-1   0    0    1   
$EndComp
$Comp
L Device:Q_PNP_ECB Q4
U 1 1 61459CC3
P 6800 5050
F 0 "Q4" H 6991 5004 50  0000 L CNN
F 1 "BC640" H 6991 5095 50  0000 L CNN
F 2 "Package_TO_SOT_THT:TO-92S_Wide" H 7000 5150 50  0001 C CNN
F 3 "~" H 6800 5050 50  0001 C CNN
	1    6800 5050
	-1   0    0    1   
$EndComp
$Comp
L power:+3.3V #PWR024
U 1 1 6145B9CB
P 6700 4850
F 0 "#PWR024" H 6700 4700 50  0001 C CNN
F 1 "+3.3V" V 6715 4978 50  0000 L CNN
F 2 "" H 6700 4850 50  0001 C CNN
F 3 "" H 6700 4850 50  0001 C CNN
	1    6700 4850
	1    0    0    -1  
$EndComp
Wire Wire Line
	7000 4700 7000 4750
$Comp
L Isolator:6N137 U5
U 1 1 6146908C
P 6150 5550
F 0 "U5" H 6150 6017 50  0000 C CNN
F 1 "6N137" H 6150 5926 50  0000 C CNN
F 2 "Package_DIP:DIP-8_W7.62mm_LongPads" H 6150 5050 50  0001 C CNN
F 3 "https://docs.broadcom.com/docs/AV02-0940EN" H 5300 6100 50  0001 C CNN
	1    6150 5550
	-1   0    0    -1  
$EndComp
$Comp
L power:Earth_Protective #PWR025
U 1 1 61479B59
P 6600 5750
F 0 "#PWR025" H 6850 5500 50  0001 C CNN
F 1 "Earth_Protective" H 7050 5600 50  0001 C CNN
F 2 "" H 6600 5650 50  0001 C CNN
F 3 "~" H 6600 5650 50  0001 C CNN
	1    6600 5750
	1    0    0    -1  
$EndComp
Wire Wire Line
	6600 5750 6450 5750
$Comp
L power:+5V #PWR018
U 1 1 61487ABD
P 5150 5250
F 0 "#PWR018" H 5150 5100 50  0001 C CNN
F 1 "+5V" H 5165 5423 50  0000 C CNN
F 2 "" H 5150 5250 50  0001 C CNN
F 3 "" H 5150 5250 50  0001 C CNN
	1    5150 5250
	1    0    0    -1  
$EndComp
$Comp
L Device:R R14
U 1 1 614BE623
P 5500 5400
F 0 "R14" H 5430 5354 50  0000 R CNN
F 1 "330" H 5430 5445 50  0000 R CNN
F 2 "Resistor_THT:R_Axial_DIN0207_L6.3mm_D2.5mm_P10.16mm_Horizontal" V 5430 5400 50  0001 C CNN
F 3 "~" H 5500 5400 50  0001 C CNN
	1    5500 5400
	-1   0    0    1   
$EndComp
Wire Wire Line
	5150 5750 5150 5650
Wire Wire Line
	5850 5450 5800 5450
Wire Wire Line
	5800 5450 5800 5350
Wire Wire Line
	5800 5350 5850 5350
Wire Wire Line
	5800 5350 5800 5250
Wire Wire Line
	5800 5250 5500 5250
Connection ~ 5800 5350
Wire Wire Line
	5500 5250 5150 5250
Connection ~ 5500 5250
Connection ~ 5150 5250
Wire Wire Line
	4400 5950 4400 6100
$Comp
L Isolator:CNY17-3 U2
U 1 1 615C2574
P 1850 5900
F 0 "U2" H 1850 6225 50  0000 C CNN
F 1 "CNY17-3" H 1850 6134 50  0000 C CNN
F 2 "Package_DIP:DIP-6_W7.62mm_LongPads" H 1850 5900 50  0001 L CNN
F 3 "http://www.vishay.com/docs/83606/cny17.pdf" H 1850 5900 50  0001 L CNN
	1    1850 5900
	1    0    0    -1  
$EndComp
$Comp
L Device:R R1
U 1 1 615C483B
P 1400 5650
F 0 "R1" H 1470 5696 50  0000 L CNN
F 1 "47" H 1470 5605 50  0000 L CNN
F 2 "Resistor_THT:R_Axial_DIN0207_L6.3mm_D2.5mm_P10.16mm_Horizontal" V 1330 5650 50  0001 C CNN
F 3 "~" H 1400 5650 50  0001 C CNN
	1    1400 5650
	1    0    0    -1  
$EndComp
$Comp
L power:Earth #PWR03
U 1 1 615C53B5
P 1400 6000
F 0 "#PWR03" H 1400 5750 50  0001 C CNN
F 1 "Earth" H 1400 5850 50  0001 C CNN
F 2 "" H 1400 6000 50  0001 C CNN
F 3 "~" H 1400 6000 50  0001 C CNN
	1    1400 6000
	1    0    0    -1  
$EndComp
Wire Wire Line
	1400 5800 1550 5800
Wire Wire Line
	1550 6000 1400 6000
Text GLabel 2400 5900 2    50   Input ~ 0
MFB
$Comp
L Device:R R5
U 1 1 615D908C
P 2350 5700
F 0 "R5" H 2420 5746 50  0000 L CNN
F 1 "330" H 2420 5655 50  0000 L CNN
F 2 "Resistor_THT:R_Axial_DIN0207_L6.3mm_D2.5mm_P10.16mm_Horizontal" V 2280 5700 50  0001 C CNN
F 3 "~" H 2350 5700 50  0001 C CNN
	1    2350 5700
	1    0    0    -1  
$EndComp
$Comp
L Isolator:CNY17-3 U3
U 1 1 6162B161
P 1900 7000
F 0 "U3" H 1900 7325 50  0000 C CNN
F 1 "CNY17-3" H 1900 7234 50  0000 C CNN
F 2 "Package_DIP:DIP-6_W7.62mm_LongPads" H 1900 7000 50  0001 L CNN
F 3 "http://www.vishay.com/docs/83606/cny17.pdf" H 1900 7000 50  0001 L CNN
	1    1900 7000
	1    0    0    -1  
$EndComp
$Comp
L Device:R R2
U 1 1 6162B929
P 1200 6750
F 0 "R2" H 1270 6796 50  0000 L CNN
F 1 "47" H 1270 6705 50  0000 L CNN
F 2 "Resistor_THT:R_Axial_DIN0207_L6.3mm_D2.5mm_P10.16mm_Horizontal" V 1130 6750 50  0001 C CNN
F 3 "~" H 1200 6750 50  0001 C CNN
	1    1200 6750
	1    0    0    -1  
$EndComp
$Comp
L power:Earth #PWR04
U 1 1 6162B933
P 1450 7100
F 0 "#PWR04" H 1450 6850 50  0001 C CNN
F 1 "Earth" H 1450 6950 50  0001 C CNN
F 2 "" H 1450 7100 50  0001 C CNN
F 3 "~" H 1450 7100 50  0001 C CNN
	1    1450 7100
	1    0    0    -1  
$EndComp
Wire Wire Line
	1600 7100 1450 7100
$Comp
L Device:R R6
U 1 1 6162B94A
P 2400 6700
F 0 "R6" H 2470 6746 50  0000 L CNN
F 1 "10k" H 2470 6655 50  0000 L CNN
F 2 "Resistor_THT:R_Axial_DIN0207_L6.3mm_D2.5mm_P10.16mm_Horizontal" V 2330 6700 50  0001 C CNN
F 3 "~" H 2400 6700 50  0001 C CNN
	1    2400 6700
	1    0    0    -1  
$EndComp
Wire Wire Line
	2400 6450 2400 6550
Wire Wire Line
	2400 6850 2400 7000
Wire Wire Line
	2400 7000 2200 7000
Wire Wire Line
	2400 7000 2450 7000
Connection ~ 2400 7000
$Comp
L power:Earth_Protective #PWR010
U 1 1 6162B959
P 2850 6850
F 0 "#PWR010" H 3100 6600 50  0001 C CNN
F 1 "Earth_Protective" H 3300 6700 50  0001 C CNN
F 2 "" H 2850 6750 50  0001 C CNN
F 3 "~" H 2850 6750 50  0001 C CNN
	1    2850 6850
	1    0    0    -1  
$EndComp
Text GLabel 2450 7000 2    50   Input ~ 0
RST
Wire Wire Line
	1400 5500 1400 5350
$Comp
L Connector_Generic:Conn_02x02_Top_Bottom J2
U 1 1 614E63DB
P 4400 4050
F 0 "J2" H 4450 4267 50  0000 C CNN
F 1 "Conn_02x02_Top_Bottom" H 4450 4176 50  0000 C CNN
F 2 "Connector_PinSocket_2.54mm:PinSocket_2x02_P2.54mm_Vertical" H 4450 4175 50  0001 C CNN
F 3 "~" H 4400 4050 50  0001 C CNN
	1    4400 4050
	1    0    0    -1  
$EndComp
Wire Wire Line
	3900 4050 3900 4150
Wire Wire Line
	3900 4150 4200 4150
Wire Wire Line
	3800 4150 3800 4100
Wire Wire Line
	3800 4100 4000 4100
Wire Wire Line
	4000 4100 4000 4050
Wire Wire Line
	4000 4050 4200 4050
Wire Wire Line
	4700 4150 5750 4150
Wire Wire Line
	4700 4050 4750 4050
Wire Wire Line
	4750 4050 4750 5950
Wire Wire Line
	4400 5950 4750 5950
$Comp
L power:+3.3V #PWR0101
U 1 1 615C9BCF
P 2400 6450
F 0 "#PWR0101" H 2400 6300 50  0001 C CNN
F 1 "+3.3V" V 2415 6578 50  0000 L CNN
F 2 "" H 2400 6450 50  0001 C CNN
F 3 "" H 2400 6450 50  0001 C CNN
	1    2400 6450
	0    -1   -1   0   
$EndComp
$Comp
L power:+3.3V #PWR0102
U 1 1 615CAE6E
P 2350 5500
F 0 "#PWR0102" H 2350 5350 50  0001 C CNN
F 1 "+3.3V" V 2365 5628 50  0000 L CNN
F 2 "" H 2350 5500 50  0001 C CNN
F 3 "" H 2350 5500 50  0001 C CNN
	1    2350 5500
	0    -1   -1   0   
$EndComp
$Comp
L Device:D_Shockley D4
U 1 1 616B824C
P 5900 2050
F 0 "D4" H 5900 2267 50  0000 C CNN
F 1 "D_Shockley" H 5900 2176 50  0000 C CNN
F 2 "Diode_THT:D_DO-15_P10.16mm_Horizontal" H 5900 2050 50  0001 C CNN
F 3 "~" H 5900 2050 50  0001 C CNN
	1    5900 2050
	-1   0    0    1   
$EndComp
$Comp
L power:+5V #PWR0103
U 1 1 616D8E6E
P 1750 1900
F 0 "#PWR0103" H 1750 1750 50  0001 C CNN
F 1 "+5V" H 1765 2073 50  0000 C CNN
F 2 "" H 1750 1900 50  0001 C CNN
F 3 "" H 1750 1900 50  0001 C CNN
	1    1750 1900
	1    0    0    -1  
$EndComp
Connection ~ 1750 1900
$Comp
L power:+5V #PWR0104
U 1 1 616D9F5F
P 1600 800
F 0 "#PWR0104" H 1600 650 50  0001 C CNN
F 1 "+5V" H 1615 973 50  0000 C CNN
F 2 "" H 1600 800 50  0001 C CNN
F 3 "" H 1600 800 50  0001 C CNN
	1    1600 800 
	1    0    0    -1  
$EndComp
Connection ~ 1600 800 
Wire Wire Line
	1300 800  1300 900 
Connection ~ 1300 800 
Wire Wire Line
	1300 800  1600 800 
Wire Wire Line
	1300 1150 1600 1150
Wire Wire Line
	1300 700  1300 800 
$Comp
L Connector:Conn_01x02_Male J7
U 1 1 616EDDA4
P 1100 700
F 0 "J7" H 1208 881 50  0000 C CNN
F 1 "Conn_01x02_Male" H 1208 790 50  0000 C CNN
F 2 "Connector_PinHeader_2.54mm:PinHeader_1x03_P2.54mm_Vertical" H 1100 700 50  0001 C CNN
F 3 "~" H 1100 700 50  0001 C CNN
	1    1100 700 
	1    0    0    -1  
$EndComp
Text GLabel 1300 1150 0    50   Input ~ 0
SWC_Read
$Comp
L Device:R R16
U 1 1 614688B7
P 6700 5400
F 0 "R16" H 6630 5354 50  0000 R CNN
F 1 "220" H 6630 5445 50  0000 R CNN
F 2 "Resistor_THT:R_Axial_DIN0207_L6.3mm_D2.5mm_P10.16mm_Horizontal" V 6630 5400 50  0001 C CNN
F 3 "~" H 6700 5400 50  0001 C CNN
	1    6700 5400
	1    0    0    -1  
$EndComp
$Comp
L Device:Jumper JP3
U 1 1 618821FD
P 2850 6500
F 0 "JP3" V 2804 6627 50  0000 L CNN
F 1 "Jumper" V 2895 6627 50  0000 L CNN
F 2 "Resistor_THT:R_Axial_DIN0207_L6.3mm_D2.5mm_P10.16mm_Horizontal" H 2850 6500 50  0001 C CNN
F 3 "~" H 2850 6500 50  0001 C CNN
	1    2850 6500
	0    1    1    0   
$EndComp
Wire Wire Line
	2850 6850 2850 6800
Wire Wire Line
	2850 6000 2850 6200
Wire Wire Line
	2150 6000 2850 6000
Wire Wire Line
	2850 6200 2700 6200
Wire Wire Line
	2700 6200 2700 7100
Connection ~ 2850 6200
Wire Wire Line
	2200 7100 2700 7100
Wire Wire Line
	5150 5250 5150 5350
$Comp
L Device:C C7
U 1 1 614BD6D1
P 5150 5500
F 0 "C7" H 5265 5546 50  0000 L CNN
F 1 "0,1uf" H 5265 5455 50  0000 L CNN
F 2 "Capacitor_THT:CP_Radial_Tantal_D4.5mm_P2.50mm" H 5188 5350 50  0001 C CNN
F 3 "~" H 5150 5500 50  0001 C CNN
	1    5150 5500
	1    0    0    -1  
$EndComp
Connection ~ 5150 5750
$Comp
L power:Earth #PWR019
U 1 1 614C0919
P 5150 5750
F 0 "#PWR019" H 5150 5500 50  0001 C CNN
F 1 "Earth" H 5150 5600 50  0001 C CNN
F 2 "" H 5150 5750 50  0001 C CNN
F 3 "~" H 5150 5750 50  0001 C CNN
	1    5150 5750
	1    0    0    -1  
$EndComp
Wire Wire Line
	5850 5750 5150 5750
Wire Wire Line
	5750 5550 5850 5550
Wire Wire Line
	5500 5550 5750 5550
Connection ~ 5750 5550
Wire Wire Line
	5750 4150 5750 5550
Connection ~ 1100 1550
Wire Wire Line
	1100 1550 1400 1550
Wire Wire Line
	1100 1450 1100 1550
$Comp
L Connector:Conn_01x02_Male J8
U 1 1 619C19EA
P 900 1450
F 0 "J8" H 1008 1631 50  0000 C CNN
F 1 "Conn_01x02_Male" H 1008 1540 50  0000 C CNN
F 2 "Connector_PinHeader_2.54mm:PinHeader_1x03_P2.54mm_Vertical" H 900 1450 50  0001 C CNN
F 3 "~" H 900 1450 50  0001 C CNN
	1    900  1450
	1    0    0    -1  
$EndComp
Text GLabel 2450 3550 2    50   Input ~ 0
SWC_ADC
Wire Wire Line
	2350 3850 2950 3850
Wire Wire Line
	2450 3550 2350 3550
Wire Wire Line
	2950 3600 2950 3850
Connection ~ 2950 3850
Wire Wire Line
	2950 3850 3200 3850
$Comp
L Relay:FINDER-36.11 K1
U 1 1 6168361B
P 5900 1100
F 0 "K1" V 6467 1100 50  0000 C CNN
F 1 "FINDER-36.11" V 6376 1100 50  0000 C CNN
F 2 "Relay_THT:Relay_SPDT_Finder_36.11" H 7170 1070 50  0001 C CNN
F 3 "https://gfinder.findernet.com/public/attachments/36/EN/S36EN.pdf" H 5900 1100 50  0001 C CNN
	1    5900 1100
	0    -1   -1   0   
$EndComp
Text GLabel 5250 950  0    50   Input ~ 0
SWC_radio
$Comp
L Connector:Conn_01x02_Male J10
U 1 1 61749DC0
P 5050 1100
F 0 "J10" H 5022 982 50  0000 R CNN
F 1 "Conn_01x02_Male" H 5022 1073 50  0000 R CNN
F 2 "Connector_PinHeader_2.54mm:PinHeader_1x03_P2.54mm_Vertical" H 5050 1100 50  0001 C CNN
F 3 "~" H 5050 1100 50  0001 C CNN
	1    5050 1100
	1    0    0    -1  
$EndComp
Connection ~ 7200 1000
Wire Wire Line
	7200 1000 7200 1100
Wire Wire Line
	7200 900  7200 1000
$Comp
L Connector:Conn_01x02_Male J9
U 1 1 61749368
P 7400 1100
F 0 "J9" H 7508 1281 50  0000 C CNN
F 1 "Conn_01x02_Male" H 7508 1190 50  0000 C CNN
F 2 "Connector_PinHeader_2.54mm:PinHeader_1x03_P2.54mm_Vertical" H 7400 1100 50  0001 C CNN
F 3 "~" H 7400 1100 50  0001 C CNN
	1    7400 1100
	-1   0    0    1   
$EndComp
Text GLabel 7200 900  2    50   Input ~ 0
SWC_wheel
Text GLabel 6300 750  2    50   Input ~ 0
SWC_Read
Wire Wire Line
	5250 950  5250 1000
Wire Wire Line
	5600 1000 5250 1000
Connection ~ 5250 1000
Wire Wire Line
	6300 750  6300 900 
Connection ~ 6300 900 
Wire Wire Line
	6300 900  6200 900 
$Comp
L Connector:Conn_01x07_Female J1
U 1 1 614C15F4
P 3400 4850
F 0 "J1" H 3428 4876 50  0000 L CNN
F 1 "Conn_01x07_Female" H 3428 4785 50  0000 L CNN
F 2 "Connector_PinHeader_2.54mm:PinHeader_1x07_P2.54mm_Vertical" H 3400 4850 50  0001 C CNN
F 3 "~" H 3400 4850 50  0001 C CNN
	1    3400 4850
	0    1    1    0   
$EndComp
$Comp
L power:Earth #PWR012
U 1 1 614DE5AB
P 2900 4650
F 0 "#PWR012" H 2900 4400 50  0001 C CNN
F 1 "Earth" H 2900 4500 50  0001 C CNN
F 2 "" H 2900 4650 50  0001 C CNN
F 3 "~" H 2900 4650 50  0001 C CNN
	1    2900 4650
	1    0    0    -1  
$EndComp
$Comp
L power:+5V #PWR013
U 1 1 614DF9C1
P 3100 4500
F 0 "#PWR013" H 3100 4350 50  0001 C CNN
F 1 "+5V" V 3115 4628 50  0000 L CNN
F 2 "" H 3100 4500 50  0001 C CNN
F 3 "" H 3100 4500 50  0001 C CNN
	1    3100 4500
	0    -1   -1   0   
$EndComp
Wire Wire Line
	3100 4650 2900 4650
Wire Wire Line
	3200 4500 3200 4650
Wire Wire Line
	3100 4500 3200 4500
Wire Wire Line
	3300 4350 3300 4650
Wire Wire Line
	3400 4250 3400 4650
Wire Wire Line
	3500 4650 3500 4150
Wire Wire Line
	2350 4150 3500 4150
Wire Wire Line
	3500 4150 3800 4150
Connection ~ 3500 4150
Wire Wire Line
	3600 4650 3600 4050
Wire Wire Line
	2350 4050 3600 4050
Wire Wire Line
	3600 4050 3900 4050
Connection ~ 3600 4050
Wire Wire Line
	3700 4650 3700 3850
Connection ~ 3700 3850
Text GLabel 3800 5300 2    50   Input ~ 0
CAR_AUX_DETECT
$Comp
L Transistor_BJT:BD139 Q2
U 1 1 61446F76
P 3700 5900
F 0 "Q2" H 3892 5946 50  0000 L CNN
F 1 "BD139" H 3892 5855 50  0000 L CNN
F 2 "Package_TO_SOT_THT:TO-126-3_Vertical" H 3900 5825 50  0001 L CIN
F 3 "http://www.st.com/internet/com/TECHNICAL_RESOURCES/TECHNICAL_LITERATURE/DATASHEET/CD00001225.pdf" H 3700 5900 50  0001 L CNN
	1    3700 5900
	1    0    0    -1  
$EndComp
Wire Wire Line
	3800 5550 3800 5700
$Comp
L Device:R R9
U 1 1 6144B5E1
P 3300 5900
F 0 "R9" V 3093 5900 50  0000 C CNN
F 1 "R" V 3184 5900 50  0000 C CNN
F 2 "Resistor_THT:R_Axial_DIN0207_L6.3mm_D2.5mm_P10.16mm_Horizontal" V 3230 5900 50  0001 C CNN
F 3 "~" H 3300 5900 50  0001 C CNN
	1    3300 5900
	0    1    1    0   
$EndComp
$Comp
L power:Earth #PWR017
U 1 1 6144DBE8
P 3800 6100
F 0 "#PWR017" H 3800 5850 50  0001 C CNN
F 1 "Earth" H 3800 5950 50  0001 C CNN
F 2 "" H 3800 6100 50  0001 C CNN
F 3 "~" H 3800 6100 50  0001 C CNN
	1    3800 6100
	1    0    0    -1  
$EndComp
$Comp
L Device:R R11
U 1 1 6145100C
P 3600 5550
F 0 "R11" V 3393 5550 50  0000 C CNN
F 1 "R" V 3484 5550 50  0000 C CNN
F 2 "Resistor_THT:R_Axial_DIN0207_L6.3mm_D2.5mm_P10.16mm_Horizontal" V 3530 5550 50  0001 C CNN
F 3 "~" H 3600 5550 50  0001 C CNN
	1    3600 5550
	0    1    1    0   
$EndComp
Wire Wire Line
	3800 5550 3750 5550
Wire Wire Line
	3450 5550 3450 5300
Wire Wire Line
	3450 5300 3750 5300
Wire Wire Line
	3500 5900 3450 5900
$Comp
L Connector:Conn_01x02_Male J11
U 1 1 61AEFB56
P 3950 5150
F 0 "J11" H 3922 5032 50  0000 R CNN
F 1 "Conn_01x02_Male" H 3922 5123 50  0000 R CNN
F 2 "Connector_PinHeader_2.54mm:PinHeader_1x03_P2.54mm_Vertical" H 3950 5150 50  0001 C CNN
F 3 "~" H 3950 5150 50  0001 C CNN
	1    3950 5150
	-1   0    0    1   
$EndComp
Wire Wire Line
	3750 5050 3750 5150
Wire Wire Line
	3750 5150 3750 5300
Connection ~ 3750 5150
Connection ~ 3750 5300
Wire Wire Line
	3750 5300 3800 5300
Wire Wire Line
	3150 5050 3150 5900
Wire Wire Line
	2800 4750 2800 5050
Wire Wire Line
	2800 5050 3150 5050
Wire Wire Line
	2350 4750 2800 4750
Wire Wire Line
	2400 3750 2400 5250
Wire Wire Line
	2400 5250 1200 5250
Wire Wire Line
	1200 5250 1200 6600
Wire Wire Line
	1200 6900 1600 6900
Wire Wire Line
	2350 3750 2400 3750
$Comp
L MCU_Microchip_ATmega:ATmega328-PU U1
U 1 1 613289BF
P 1750 3550
F 0 "U1" H 1106 3596 50  0000 R CNN
F 1 "ATmega328-PU" H 1106 3505 50  0000 R CNN
F 2 "Package_DIP:DIP-28_W7.62mm" H 1750 3550 50  0001 C CIN
F 3 "http://ww1.microchip.com/downloads/en/DeviceDoc/ATmega328_P%20AVR%20MCU%20with%20picoPower%20Technology%20Data%20Sheet%2040001984A.pdf" H 1750 3550 50  0001 C CNN
	1    1750 3550
	1    0    0    -1  
$EndComp
Wire Wire Line
	2350 3650 2500 3650
Wire Wire Line
	2500 3650 2500 5350
Wire Wire Line
	2150 5900 2350 5900
Wire Wire Line
	1400 5350 2500 5350
Wire Wire Line
	2350 5500 2350 5550
Wire Wire Line
	2350 5850 2350 5900
Connection ~ 2350 5900
Wire Wire Line
	2350 5900 2400 5900
Wire Wire Line
	6450 5550 6700 5550
Wire Wire Line
	5800 6950 5800 6850
Connection ~ 5800 6850
Wire Wire Line
	5800 6850 5900 6850
$Comp
L Device:C C8
U 1 1 61489123
P 6300 6800
F 0 "C8" H 6415 6846 50  0000 L CNN
F 1 "0,1uf" H 6415 6755 50  0000 L CNN
F 2 "Capacitor_THT:CP_Radial_Tantal_D4.5mm_P2.50mm" H 6338 6650 50  0001 C CNN
F 3 "~" H 6300 6800 50  0001 C CNN
	1    6300 6800
	1    0    0    -1  
$EndComp
Wire Wire Line
	5650 7050 6300 7050
Wire Wire Line
	6300 7050 6300 6950
Connection ~ 6300 7050
Wire Wire Line
	6300 6650 6300 6550
Connection ~ 6300 6550
Wire Wire Line
	6300 6550 6450 6550
$Comp
L pspice:CAP C11
U 1 1 61571EE1
P 900 1900
F 0 "C11" V 1215 1900 50  0000 C CNN
F 1 "100nf" V 1124 1900 50  0000 C CNN
F 2 "Capacitor_THT:CP_Radial_Tantal_D4.5mm_P2.50mm" H 900 1900 50  0001 C CNN
F 3 "~" H 900 1900 50  0001 C CNN
	1    900  1900
	0    1    1    0   
$EndComp
Wire Wire Line
	650  2350 650  1900
Connection ~ 650  2350
Wire Wire Line
	1150 1900 1750 1900
Wire Wire Line
	5750 6550 5900 6550
Connection ~ 5900 6550
Wire Wire Line
	5900 6550 6300 6550
Wire Wire Line
	2350 2350 4900 2350
$Comp
L pspice:CAP C12
U 1 1 615B2373
P 2100 1900
F 0 "C12" V 2415 1900 50  0000 C CNN
F 1 "100nf" V 2324 1900 50  0000 C CNN
F 2 "Capacitor_THT:CP_Radial_Tantal_D4.5mm_P2.50mm" H 2100 1900 50  0001 C CNN
F 3 "~" H 2100 1900 50  0001 C CNN
	1    2100 1900
	0    -1   -1   0   
$EndComp
Connection ~ 1850 1900
$Comp
L power:Earth #PWR05
U 1 1 615B2E82
P 2400 1900
F 0 "#PWR05" H 2400 1650 50  0001 C CNN
F 1 "Earth" H 2400 1750 50  0001 C CNN
F 2 "" H 2400 1900 50  0001 C CNN
F 3 "~" H 2400 1900 50  0001 C CNN
	1    2400 1900
	1    0    0    -1  
$EndComp
Wire Wire Line
	2350 1900 2400 1900
Wire Wire Line
	5600 1300 5600 2050
Wire Wire Line
	6300 1300 6300 2050
$Comp
L Device:C C13
U 1 1 615F0838
P 9150 1750
F 0 "C13" H 9265 1796 50  0000 L CNN
F 1 "100yF" H 9265 1705 50  0000 L CNN
F 2 "Capacitor_THT:CP_Radial_D5.0mm_P2.00mm" H 9188 1600 50  0001 C CNN
F 3 "~" H 9150 1750 50  0001 C CNN
	1    9150 1750
	1    0    0    -1  
$EndComp
Wire Wire Line
	9150 1900 9150 2050
Connection ~ 9150 2050
Wire Wire Line
	9150 2050 9700 2050
Wire Wire Line
	8700 2050 9150 2050
Wire Wire Line
	8700 1600 9150 1600
Connection ~ 9150 1600
Wire Wire Line
	9150 1600 9400 1600
Wire Wire Line
	9150 1250 9150 1600
Wire Wire Line
	9550 1250 9150 1250
Wire Wire Line
	9850 1250 10200 1250
Wire Wire Line
	10200 1250 10200 1600
$Comp
L Device:CP C14
U 1 1 6168DB76
P 10650 1750
F 0 "C14" H 10768 1796 50  0000 L CNN
F 1 "10yF" H 10768 1705 50  0000 L CNN
F 2 "Capacitor_THT:CP_Radial_D5.0mm_P2.00mm" H 10688 1600 50  0001 C CNN
F 3 "~" H 10650 1750 50  0001 C CNN
	1    10650 1750
	1    0    0    -1  
$EndComp
Wire Wire Line
	10200 1600 10650 1600
Connection ~ 10650 1600
Wire Wire Line
	10650 1600 10850 1600
Wire Wire Line
	10650 1900 10650 2050
Wire Wire Line
	10650 2050 10200 2050
Connection ~ 10200 2050
Wire Wire Line
	6850 3650 7150 3650
Wire Wire Line
	6850 3550 7150 3550
Wire Wire Line
	6850 3450 7150 3450
Wire Wire Line
	6850 3150 7150 3150
Wire Wire Line
	6850 3050 7150 3050
Text Notes 6200 2550 0    50   ~ 0
Pinout jest lustrzanie odbity na potrzeby pcb. Uwaga na schemat od producenta\n
Wire Wire Line
	1600 1550 1400 1550
$Comp
L Device:D_Shockley D2
U 1 1 6134B067
P 1600 1400
F 0 "D2" V 1550 1600 50  0000 R CNN
F 1 "D_Shockley" V 1650 1900 50  0000 R CNN
F 2 "Diode_THT:D_DO-15_P10.16mm_Horizontal" H 1600 1400 50  0001 C CNN
F 3 "~" H 1600 1400 50  0001 C CNN
	1    1600 1400
	0    1    1    0   
$EndComp
Wire Wire Line
	6300 900  7200 900 
$Comp
L Transistor_BJT:BC547 Q5
U 1 1 61BC88D6
P 2400 1000
F 0 "Q5" H 2591 1046 50  0000 L CNN
F 1 "BC547" H 2591 955 50  0000 L CNN
F 2 "Package_TO_SOT_THT:TO-92_Inline" H 2600 925 50  0001 L CIN
F 3 "https://www.onsemi.com/pub/Collateral/BC550-D.pdf" H 2400 1000 50  0001 L CNN
	1    2400 1000
	1    0    0    -1  
$EndComp
Wire Wire Line
	1600 800  2500 800 
Wire Wire Line
	2500 1200 2500 1250
$Comp
L Device:R R18
U 1 1 61C4BFD4
P 2500 1400
F 0 "R18" H 2570 1446 50  0000 L CNN
F 1 "10k" H 2570 1355 50  0000 L CNN
F 2 "Resistor_THT:R_Axial_DIN0207_L6.3mm_D2.5mm_P10.16mm_Horizontal" V 2430 1400 50  0001 C CNN
F 3 "~" H 2500 1400 50  0001 C CNN
	1    2500 1400
	1    0    0    -1  
$EndComp
Connection ~ 2500 1250
Wire Wire Line
	1600 1550 2500 1550
Connection ~ 1600 1550
Wire Wire Line
	5250 1000 5250 1100
Wire Wire Line
	4100 950  4100 1200
Connection ~ 4100 1200
Wire Wire Line
	2900 800  2900 1250
Wire Wire Line
	2500 1250 2900 1250
$Comp
L Device:R R13
U 1 1 61C8B209
P 2000 1150
F 0 "R13" V 2100 1150 50  0000 C CNN
F 1 "100K" V 2200 1150 50  0000 C CNN
F 2 "Resistor_THT:R_Axial_DIN0207_L6.3mm_D2.5mm_P10.16mm_Horizontal" V 1930 1150 50  0001 C CNN
F 3 "~" H 2000 1150 50  0001 C CNN
	1    2000 1150
	0    1    1    0   
$EndComp
Wire Wire Line
	1600 1150 1850 1150
Wire Wire Line
	2150 1150 2200 1150
Wire Wire Line
	2200 1150 2200 1000
$EndSCHEMATC
