;Project Name      : IS206X_012_DUALMODESPK;
;ROM Information   : 5506_DUAL_SPK;
;ROM Version       : 0201;
;IC Version        : 35 35 30 36 5F 44 55 41 4C 5F 53 50 4B 00 40 01 00 01 00;
;UI Version        : MPET 2.1.32.6327;
;Date              : 20/07/22 12:31:15;
;Note              : had Enabled Load default bin into IPF;
;CheckSum          : 0EBA;

;;;     0  1  2  3  4  5  6  7       8  9  A  B  C  D  E  F
0000    ** ** ** ** ** ** 01 04      04 24 ** 0A 16 00 B8 06 ;
0010    00 00 31 11 10 18 09 2A      09 00 03 0A 00 9B 00 AE ;
0020    31 03 05 BF FE FF FE 98      3D 19 86 02 0C 72 10 00 ;
0030    00 00 10 3C 00 00 0A CE      01 A4 03 00 00 52 5A CE ;
0040    E2 00 00 00 00 10 11 30      30 30 30 00 00 00 00 00 ;
0050    00 00 00 00 00 00 00 00      00 00 00 00 00 00 00 00 ;
0060    00 00 00 00 00 00 00 00      00 00 00 00 00 00 00 00 ;
0070    00 00 00 00 00 00 00 00      00 00 00 00 00 00 00 00 ;
0080    00 00 00 ** 09 F0 FF 00      A7 01 86 00 92 01 D6 2E ;
0090    E0 00 00 FD 13 B7 DE 3F      08 00 00 99 99 99 99 99 ;
00A0    99 99 99 00 00 00 00 00      00 00 00 00 FF 08 52 02 ;
00B0    3F 0C 20 A8 A2 92 08 B5      01 1E 1E 05 0C 0C 05 03 ;
00C0    20 04 04 00 00 AA CC 09      02 07 0D 06 01 60 00 E0 ;
00D0    00 01 60 00 E0 04 01 7F      24 00 0A 0C 32 33 30 00 ;
00E0    31 00 34 36 35 37 16 26      00 00 0B 0B 00 00 30 00 ;
00F0    31 00 00 00 00 00 00 00      00 00 04 05 00 00 00 00 ;

;;;     0  1  2  3  4  5  6  7       8  9  A  B  C  D  E  F
0100    31 00 00 00 00 00 00 00      00 00 06 06 00 00 30 00 ;
0110    31 00 00 00 00 00 00 00      00 00 06 0D 00 00 30 09 ;
0120    31 08 1A 00 1D 00 0E 00      00 00 06 0D 00 00 30 09 ;
0130    31 08 1A 11 1D 12 0E 00      00 00 06 0D 00 00 30 09 ;
0140    31 08 1A 11 1D 12 0E 10      00 00 06 0D 00 00 30 09 ;
0150    31 08 1A 11 1D 12 0E 00      00 00 00 00 00 00 00 00 ;
0160    00 00 00 00 00 00 00 00      10 24 00 00 49 35 05 02 ;
0170    35 C1 00 00 3E 1E 28 08      00 0A 32 0C 04 00 A2 A5 ;
0180    C2 C5 E2 E5 E8 EB EE F1      F4 F7 FA FB FC 00 A2 A5 ;
0190    C2 C5 E2 E5 E8 EB EE F1      F4 F7 FA FB FC 03 02 05 ;
01A0    0A 04 06 00 30 0A 8C 04      E0 03 00 00 80 34 3E 04 ;
01B0    00 D8 05 00 FE AD ** **      ** ** AA 00 02 34 1E FF ;
01C0    00 09 50 1E B4 78 01 0D      07 00 32 0A D0 00 00 00 ;
01D0    00 01 1E C0 01 43 80 94      93 45 00 00 00 40 00 07 ;
01E0    00 11 01 4B 1E FF 07 00      04 01 20 00 1D 00 0C 08 ;
01F0    04 0C 1B 00 02 0B F0 06      00 00 9E BA 06 04 AA 55 ;

;;;     0  1  2  3  4  5  6  7       8  9  A  B  C  D  E  F
0200    ** ** ** ** ** ** ** **      ** ** ** ** ** ** ** ** ;
0210    ** ** ** ** ** ** ** **      ** ** ** ** ** ** ** ** ;
0220    ** ** ** ** ** ** ** **      ** ** ** ** ** ** ** ** ;
0230    ** ** ** ** ** ** ** **      ** ** ** ** ** ** ** ** ;
0240    ** ** ** ** ** ** ** **      ** ** ** ** ** ** ** ** ;
0250    ** ** ** ** 02 C0 00 48      ** 0F 04 FF 04 00 80 00 ;
0260    52 D1 D0 3F 50 54 30 00      38 10 28 52 C6 83 94 07 ;
0270    12 03 AF 63 10 30 12 0F      1F 1A 2F 29 1E 54 87 20 ;
0280    0D 41 3C 26 13 29 49 4A      55 02 20 20 2F 27 00 62 ;
0290    08 80 01 02 00 00 02 80      56 88 BD 00 04 ** E8 68 ;
02A0    37 44 ** ** B5 99 ** **      50 00 E5 00 ** 01 04 01 ;
02B0    64 05 01 04 02 64 05 01      04 03 3C 08 0A 0A 00 00 ;
02C0    09 02 02 03 08 02 02 03      08 02 02 0A 05 02 02 02 ;
02D0    04 02 02 01 64 08 01 03      03 64 05 01 03 01 0A 05 ;
02E0    01 04 02 64 04 01 04 03      3C 08 02 02 01 64 FF 02 ;
02F0    02 02 FF C0 F3 00 00 00      00 00 00 00 00 00 AA 55 ;

;;;     0  1  2  3  4  5  6  7       8  9  A  B  C  D  E  F
0300    CF 65 09 86 01 00 00 04      0D 03 05 03 03 0D 0D 1D ;
0310    13 05 30 04 00 04 05 04      1E 0F 0F 0A 78 02 20 7F ;
0320    40 40 50 12 12 16 20 10      16 55 55 00 00 24 14 80 ;
0330    20 71 01 6A 0A C3 04 00      7F 50 00 14 FF 03 19 FF ;
0340    40 F0 7F 40 00 09 00 00      09 70 00 C0 83 01 00 90 ;
0350    69 35 02 8F F9 15 00 00      00 00 00 1F 21 11 20 05 ;
0360    1E AA 55 FF FF FF FF FF      FF FF FF FF FF FF FF FF ;
0370    FF FF FF FF FF FF FF FF      FF FF FF FF FF FF FF FF ;
0380    FF FF FF FF FF FF FF FF      FF FF FF FF FF FF FF FF ;
0390    FF FF FF FF FF FF FF FF      FF FF FF FF FF FF FF FF ;
03A0    FF FF FF FF FF FF FF FF      FF FF FF FF FF FF FF FF ;
03B0    FF FF FF FF FF FF FF FF      FF FF FF FF FF FF FF FF ;
03C0    FF FF FF FF FF FF FF FF      FF FF FF FF FF FF FF FF ;
03D0    FF 00 00 00 11 01 00 00      10 00 80 00 00 80 5F 9B ;
03E0    34 FB 00 00 11 01 00 00      10 00 80 00 00 80 5F 9B ;
03F0    34 FB FF FF FF FF FF FF      FF FF FF FF FF FF FF FF ;

;;;     0  1  2  3  4  5  6  7       8  9  A  B  C  D  E  F
0400    FF FF FF FF FF FF FF FF      FF FF FF FF FF FF FF FF ;
0410    FF FF FF FF FF FF FF FF      FF FF FF FF FF FF FF FF ;
0420    FF FF FF FF FF FF FF FF      FF FF FF FF FF FF FF FF ;
0430    FF FF FF FF FF FF FF FF      FF FF FF FF FF FF FF FF ;
0440    FF FF FF FF FF FF FF FF      FF FF FF FF FF FF FF FF ;
0450    FF FF FF FF FF FF FF FF      FF FF FF FF FF FF FF FF ;
0460    FF FF FF FF FF FF FF FF      FF FF FF FF FF FF FF FF ;
0470    FF FF FF FF FF FF FF FF      FF FF FF FF FF FF FF FF ;
0480    80 81 82 83 84 87 88 1B      1A 00 00 16 00 00 00 00 ;
0490    00 00 00 0C 0C 00 1B 00      0F 00 00 00 00 00 00 00 ;
04A0    80 81 82 83 84 87 88 1B      1A 00 00 16 00 00 00 00 ;
04B0    00 00 00 0C 0C 00 1B 00      0F 00 00 00 FF FF FF FF ;
04C0    80 81 82 83 84 87 88 1B      1A 00 00 16 00 00 00 00 ;
04D0    00 00 00 0C 0C 00 1B 00      0F 00 00 00 FF FF FF FF ;
04E0    80 81 82 83 84 87 88 1B      1A 00 00 16 00 00 00 00 ;
04F0    00 00 00 0C 0C 00 1B 00      0F 00 00 00 FF FF FF FF ;

;;;     0  1  2  3  4  5  6  7       8  9  A  B  C  D  E  F
0500    10 42 4D 36 32 5F 44 53      50 4B 20 76 32 2E 31 2E ;
0510    35 00 00 00 00 00 00 00      00 00 00 00 00 00 00 00 ;
0520    00 FF FF FF FF FF FF FF      FF FF FF FF FF FF FF FF ;
0530    FF FF FF FF FF FF FF FF      FF FF FF FF FF FF FF FF ;
0540    FF FF FF FF FF FF FF FF      FF FF FF FF FF FF FF FF ;
0550    FF FF FF FF FF FF FF FF      FF FF FF FF FF FF FF FF ;
0560    FF FF FF FF FF FF FF FF      FF FF FF FF FF FF FF FF ;
0570    FF FF FF FF FF FF FF FF      FF FF FF FF FF FF FF FF ;
0580    00 00 00 00 00 00 00 00      00 00 00 00 00 00 00 00 ;
0590    00 00 00 00 00 00 00 00      00 00 00 00 00 00 00 00 ;
05A0    00 00 00 00 00 00 00 00      00 00 00 00 00 00 00 00 ;
05B0    00 00 00 00 00 00 00 00      00 00 00 00 00 00 00 00 ;
05C0    00 00 00 00 00 00 00 00      00 00 00 00 00 00 00 00 ;
05D0    FF FF FF FF FF FF FF FF      FF FF FF FF FF FF FF FF ;
05E0    FF FF FF FF FF FF FF FF      FF FF FF FF FF FF FF FF ;
05F0    FF FF FF FF FF FF FF FF      FF FF FF FF FF FF FF FF ;

;;;     0  1  2  3  4  5  6  7       8  9  A  B  C  D  E  F
0600    AA 55 FF FF FF FF FF FF      FF FF 00 00 00 00 00 00 ;
0610    00 00 00 00 00 00 00 00      00 00 00 00 00 00 00 00 ;
0620    00 00 00 00 00 00 00 00      00 00 00 00 00 00 00 00 ;
0630    00 00 00 00 00 00 00 00      00 00 00 00 00 00 00 00 ;
0640    00 00 00 00 00 00 00 00      00 00 00 00 00 00 00 00 ;
0650    00 00 00 00 00 00 00 00      00 00 00 00 00 00 00 00 ;
0660    00 00 00 00 00 00 00 00      00 00 00 00 00 00 00 00 ;
0670    00 00 00 00 00 00 00 00      00 00 00 00 00 00 00 00 ;
0680    00 00 00 00 00 00 00 00      00 00 00 00 00 00 00 00 ;
0690    00 00 00 00 00 00 00 00      00 00 00 00 00 00 00 00 ;
06A0    00 00 00 00 00 00 00 00      00 00 00 00 00 00 00 00 ;
06B0    00 00 00 00 00 00 00 00      00 00 00 00 00 00 00 00 ;
06C0    00 00 00 00 00 00 00 00      00 00 00 00 00 00 00 00 ;
06D0    00 00 00 00 00 00 00 00      00 00 00 00 00 00 00 00 ;
06E0    00 00 00 00 00 00 00 00      00 00 00 00 00 00 00 00 ;
06F0    00 00 00 00 00 00 00 00      00 00 00 00 00 00 00 00 ;

;;;     0  1  2  3  4  5  6  7       8  9  A  B  C  D  E  F
0700    00 00 00 00 00 00 00 00      00 00 00 00 00 00 00 00 ;
0710    00 00 00 00 00 00 00 00      00 00 00 00 00 00 00 00 ;
0720    00 00 00 00 00 00 00 00      00 00 00 00 00 00 00 00 ;
0730    00 00 00 00 00 00 00 00      00 00 00 00 00 00 00 00 ;
0740    00 00 55 E4 05 D2 AF 9F      A9 8F E5 4A 7D FE 43 53 ;
0750    53 49 16 96 24 47 C6 23      61 BA D9 4B 4D 1E 43 53 ;
0760    53 49 B3 9B 72 34 BE EC      D4 A8 F4 43 41 88 43 53 ;
0770    53 49 05 16 DA FE 25 02      14 09 4C 45 5F 42 4D 36 ;
0780    34 5F 44 53 50 4B 20 76      32 2E 31 2E 35 00 02 0A ;
0790    00 00 00 00 00 00 00 00      00 00 00 00 00 00 00 00 ;
07A0    00 00 00 00 00 00 00 00      00 00 00 00 00 00 03 12 ;
07B0    06 64 00 00 00 00 00 00      00 00 4D 43 48 50 00 00 ;
07C0    00 00 00 00 00 00 00 00      00 00 44 75 61 6C 20 53 ;
07D0    70 65 61 6B 65 72 00 00      00 00 30 00 00 00 00 00 ;
07E0    00 00 00 00 00 00 00 00      00 00 30 30 30 30 00 00 ;
07F0    00 00 00 00 00 00 00 00      00 00 10 08 00 00 FF FF ;

;;;     0  1  2  3  4  5  6  7       8  9  A  B  C  D  E  F
0800    FF FF FF FF FF FF FF FF      FF FF FF FF FF FF FF FF ;
0810    FF FF FF FF FF FF FF FF      FF FF FF FF FF FF FF FF ;
0820    FF FF FF FF FF FF FF FF      FF FF FF FF FF FF FF FF ;
0830    FF FF FF FF FF FF FF FF      FF FF FF FF FF FF FF FF ;
0840    FF FF FF FF FF FF FF FF      FF FF FF FF FF FF FF FF ;
0850    FF FF FF FF FF FF FF FF      FF FF FF FF FF FF FF FF ;
0860    FF FF FF FF FF FF FF FF      FF FF FF FF FF FF FF FF ;
0870    FF FF FF FF FF FF FF FF      FF FF FF FF FF FF FF FF ;
0880    FF FF FF FF FF FF FF FF      FF FF FF FF FF FF FF FF ;
0890    FF FF FF FF FF FF FF FF      FF FF FF FF FF FF FF FF ;
08A0    FF FF FF FF FF FF FF FF      FF FF FF FF FF FF FF FF ;
08B0    FF FF FF FF FF FF FF FF      FF FF FF FF FF FF FF FF ;
08C0    FF FF FF FF FF FF FF FF      FF FF FF FF FF FF FF FF ;
08D0    FF FF FF FF FF FF FF FF      FF FF FF FF FF FF FF FF ;
08E0    FF FF FF FF FF FF FF FF      FF FF FF FF FF FF FF FF ;
08F0    FF FF FF FF FF FF FF FF      FF FF FF FF FF FF FF FF ;

;;;     0  1  2  3  4  5  6  7       8  9  A  B  C  D  E  F
0900    FF FF FF FF FF FF FF FF      FF FF FF FF FF FF FF FF ;
0910    FF FF FF FF FF FF FF FF      FF FF FF FF FF FF FF FF ;
0920    FF FF FF FF FF FF FF FF      FF FF FF FF FF FF FF FF ;
0930    FF FF FF FF FF FF FF FF      FF FF FF FF FF FF FF FF ;
0940    FF FF FF FF FF FF FF FF      FF FF FF FF FF FF FF FF ;
0950    FF FF FF FF FF FF FF FF      FF FF FF FF FF FF FF FF ;
0960    FF FF FF FF FF FF FF FF      FF FF FF FF FF FF FF FF ;
0970    FF FF FF FF FF FF FF FF      FF FF FF FF FF FF FF FF ;
0980    FF FF FF FF FF FF FF FF      FF FF FF FF FF FF FF FF ;
0990    FF FF FF FF FF FF FF FF      FF FF FF FF FF FF FF FF ;
09A0    FF FF FF FF FF FF FF FF      FF FF FF FF FF FF FF FF ;
09B0    FF FF FF FF FF FF FF FF      FF FF FF FF FF FF FF FF ;
09C0    FF FF FF FF FF FF FF FF      FF FF FF FF FF FF FF FF ;
09D0    FF FF FF FF FF FF FF FF      FF FF FF FF FF FF FF FF ;
09E0    FF FF FF FF FF FF FF FF      FF FF FF FF FF FF FF FF ;
09F0    FF FF FF FF FF FF FF FF      FF FF FF FF FF FF FF FF ;

;;;     0  1  2  3  4  5  6  7       8  9  A  B  C  D  E  F
0A00    01 00 00 04 08 C1 A0 29      02 00 00 0A 32 30 31 39 ;
0A10    2D 30 38 2D 32 33 01 00      00 1F 00 45 EB 5F 00 01 ;
0A20    00 00 00 01 00 00 10 10      08 60 01 00 00 1F 00 22 ;
0A30    EB 5F 00 01 00 00 00 01      00 00 10 10 08 60 01 00 ;
0A40    00 1F 00 0B EB 5F 00 01      00 00 00 01 00 00 10 10 ;
0A50    08 60 01 00 00 1F 00 0B      EB 5F 00 01 00 00 00 01 ;
0A60    00 00 10 10 08 60 01 00      00 1F 00 05 EB 5F 00 01 ;
0A70    00 00 00 01 00 00 10 10      08 60 01 00 00 1F 00 05 ;
0A80    EB 5F 00 01 00 00 00 01      00 00 10 10 08 60 12 03 ;
0A90    B9 1E 12 03 B9 1E 11 03      F3 1E 12 03 E9 06 11 03 ;
0AA0    F3 1E 12 03 E9 06 01 00      00 1F 00 0B EB 5F 00 01 ;
0AB0    00 00 00 01 00 00 10 10      08 60 01 00 00 1F 00 0B ;
0AC0    EB 5F 00 01 00 00 00 01      00 00 10 10 08 60 00 00 ;
0AD0    00 00 00 00 00 00 00 00      00 00 00 00 00 00 00 00 ;
0AE0    00 00 00 00 00 00 00 00      00 00 00 00 00 00 00 00 ;
0AF0    00 00 00 00 00 00 00 00      00 00 00 00 00 00 00 00 ;

;;;     0  1  2  3  4  5  6  7       8  9  A  B  C  D  E  F
0B00    00 00 00 00 00 00 00 00      00 00 00 00 00 00 00 00 ;
0B10    00 00 00 00 00 00 00 00      00 00 00 00 00 00 40 00 ;
0B20    00 00 00 00 00 00 00 00      00 00 00 00 00 00 00 00 ;
0B30    00 00 00 00 00 00 00 00      00 00 00 00 00 00 00 00 ;
0B40    00 00 00 00 00 00 00 00      00 00 00 00 00 00 00 00 ;
0B50    00 00 00 00 00 00 00 00      00 00 00 00 00 00 00 00 ;
0B60    00 00 00 00 00 00 00 00      00 00 00 00 00 00 00 00 ;
0B70    00 00 40 00 00 00 00 00      00 00 00 00 00 00 00 00 ;
0B80    00 00 00 00 00 00 00 00      00 00 00 00 00 00 00 00 ;
0B90    00 00 00 00 00 00 00 00      00 00 00 00 00 00 00 00 ;
0BA0    00 00 00 00 00 00 00 00      00 00 00 00 00 00 00 00 ;
0BB0    00 00 00 00 00 00 00 00      00 00 00 00 00 00 00 00 ;
0BC0    00 00 00 00 00 00 40 00      00 00 00 00 00 00 00 00 ;
0BD0    00 00 00 00 00 00 00 00      00 00 00 00 00 00 00 00 ;
0BE0    00 00 00 00 00 00 00 00      00 00 00 00 00 00 00 00 ;
0BF0    00 00 00 00 00 00 00 00      00 00 00 00 00 00 00 00 ;

;;;     0  1  2  3  4  5  6  7       8  9  A  B  C  D  E  F
0C00    00 00 00 00 00 00 00 00      00 00 00 00 00 00 00 00 ;
0C10    00 00 00 00 00 00 00 00      00 00 40 00 00 00 00 00 ;
0C20    00 00 00 00 00 00 00 00      00 00 00 00 00 00 00 00 ;
0C30    00 00 00 00 00 00 00 00      00 00 00 00 00 00 00 00 ;
0C40    00 00 00 00 00 00 00 00      00 00 00 00 00 00 00 00 ;
0C50    00 00 00 00 00 00 00 00      00 00 00 00 00 00 00 00 ;
0C60    00 00 00 00 00 00 00 00      00 00 00 00 00 00 40 00 ;
0C70    00 00 55 AA 0D 30 11 A3      08 81 95 2C 0D 88 6D 28 ;
0C80    00 84 F4 2B F3 8A 27 2A      EC 8A F1 2B 7F 89 03 2C ;
0C90    99 84 90 2D A4 E8 31 6D      B8 07 81 95 2C 0D 88 6D ;
0CA0    28 00 A3 69 2C 64 8A 3A      2C 80 A0 25 2C 88 84 90 ;
0CB0    2D A4 CD 87 6D C3 00 00      00 00 00 00 00 00 00 00 ;
0CC0    00 00 00 00 00 00 00 00      00 00 00 00 00 00 00 00 ;
0CD0    00 00 00 00 00 00 00 00      00 00 00 00 00 00 00 00 ;
0CE0    00 00 00 00 00 00 00 00      00 00 00 00 00 00 00 00 ;
0CF0    00 00 00 00 00 00 00 00      00 00 00 00 00 00 00 00 ;

;;;     0  1  2  3  4  5  6  7       8  9  A  B  C  D  E  F
0D00    00 00 00 00 00 00 00 00      00 00 00 00 00 00 00 00 ;
0D10    00 00 00 00 00 00 00 00      00 00 00 00 00 00 00 00 ;
0D20    00 00 00 00 00 00 00 00      00 00 00 00 00 00 00 00 ;
0D30    1A 80 1F 83 3F 2A 93 3E      9A 82 FC 5A 40 00 84 2A ;
0D40    E2 AA 1A 80 81 97 3E 96      1E 95 7F 34 00 6F 40 00 ;
0D50    0A 91 52 4A 34 00 0F 82      FD 2A 22 7A 0F 1A 81 40 ;
0D60    83 FF FA 23 9A 3F 23 92      FF 93 FF FA 81 51 8A 23 ;
0D70    8A 1F 1A 82 00 01 08 1A      00 00 00 00 00 00 01 08 ;
0D80    1A 23 A2 9F 00 00 00 01      88 1A 00 00 00 00 00 00 ;
0D90    97 FD A6 97 3E A6 82 FC      51 40 00 95 2A E9 AA 1A ;
0DA0    82 91 41 C0 0A 93 25 BA      1A 82 DF 37 00 00 3C 20 ;
0DB0    05 16 82 CE A0 00 01 82      FC 51 26 E1 5F 1A 83 40 ;
0DC0    22 E1 5F 22 E2 9F 1A 83      40 1A 83 7F 83 26 DA 22 ;
0DD0    F2 9F 93 3E 7A 83 3E 9A      22 7A 0F 1A 95 40 82 FD ;
0DE0    2A 22 7A 0F 1A 95 40 82      FC 51 26 E1 5F 1A 84 30 ;
0DF0    22 E1 5F 22 E2 9F 1A 95      41 0D 01 AF 93 3D 9A 34 ;

;;;     0  1  2  3  4  5  6  7       8  9  A  B  C  D  E  F
0E00    00 0F 35 80 00 3C 80 05      16 84 9E A0 00 01 41 80 ;
0E10    0A 93 26 FA 93 26 FA 41      FF EA 93 27 1A 93 27 1A ;
0E20    42 2F FA 93 3D 8A 41 8F      EA 93 26 DA 93 26 DA 40 ;
0E30    00 0A 93 3D AA 36 00 00      3C 80 05 16 85 AE A0 00 ;
0E40    01 9B 3D D1 97 3D E1 97      3D F4 9B 3E 05 35 00 01 ;
0E50    97 3E D1 97 3E C1 34 00      7F 35 00 00 3C 30 05 16 ;
0E60    86 6E A0 00 01 34 00 0F      97 3E B6 35 B0 01 97 3D ;
0E70    C1 34 00 14 34 00 7F 3C      04 65 16 86 FE A0 00 04 ;
0E80    35 C0 01 3C 18 05 16 87      3E A0 00 04 34 00 0F 36 ;
0E90    70 01 3C 00 A5 16 87 8E      A0 00 04 AF FF F4 AF FF ;
0EA0    F4 AF FF F4 A0 00 04 A0      00 04 A0 00 14 A0 00 14 ;
0EB0    A0 00 14 A0 00 14 A0 00      14 A0 00 04 AF FF F4 AF ;
0EC0    FF E4 AF FF E4 AF FF E4      AF FF E4 A0 00 04 A0 00 ;
0ED0    14 A0 00 24 A0 00 34 A0      00 44 A0 00 34 A0 00 14 ;
0EE0    AF FF F4 AF FF D4 AF FF      B4 AF FF A4 AF FF B4 AF ;
0EF0    FF D4 A0 00 04 A0 00 44      A0 00 74 A0 00 94 A0 00 ;

;;;     0  1  2  3  4  5  6  7       8  9  A  B  C  D  E  F
0F00    84 A0 00 64 A0 00 24 AF      FF C4 AF FF 74 AF FF 44 ;
0F10    AF FF 34 AF FF 64 AF FF      C4 A0 00 34 A0 00 B4 A0 ;
0F20    01 14 A0 01 34 A0 01 04      A0 00 94 AF FF F4 AF FF ;
0F30    44 AF FE B4 AF FE 64 AF      FE 74 AF FE F4 AF FF C4 ;
0F40    A0 00 C4 A0 01 A4 A0 02      24 A0 02 34 A0 01 B4 A0 ;
0F50    00 B4 AF FF 74 AF FE 34      AF FD 44 AF FD 04 AF FD ;
0F60    74 AF FE A4 A0 00 44 A0      01 F4 A0 03 54 A0 04 04 ;
0F70    A0 03 B4 A0 02 64 A0 00      74 AF FE 24 AF FC 24 AF ;
0F80    FA F4 AF FA F4 AF FC 44      AF FE 94 A0 01 84 A0 04 ;
0F90    44 A0 06 24 A0 06 A4 A0      05 84 A0 02 E4 AF FF 54 ;
0FA0    AF FB A4 AF F8 C4 AF F7      84 AF F8 54 AF FB 24 AF ;
0FB0    FF 64 A0 04 24 A0 08 24      A0 0A 74 A0 0A 44 A0 07 ;
0FC0    74 A0 02 94 AF FC B4 AF      F7 44 AF F3 94 AF F2 D4 ;
0FD0    AF F5 54 AF FA B4 A0 01      C4 A0 08 E4 A0 0E 44 A0 ;
0FE0    10 74 A0 0E A4 A0 09 04      A0 00 B4 AF F7 C4 AF F0 ;
0FF0    34 AF EC 34 AF EC E4 AF      F2 64 AF FB B4 A0 06 C4 ;

;;;     0  1  2  3  4  5  6  7       8  9  A  B  C  D  E  F
1000    A0 10 C4 A0 17 44 A0 18      44 A0 13 54 A0 09 34 AF ;
1010    FC 14 AF EF 24 AF E5 A4      AF E2 24 AF E5 E4 AF F0 ;
1020    74 AF FF 94 A0 0F C4 A0      1D 04 A0 23 C4 A0 22 04 ;
1030    A0 17 A4 A0 06 B4 AF F3      04 AF E1 54 AF D6 44 AF ;
1040    D5 04 AF DE 64 AF F0 D4      A0 08 44 A0 1F 14 A0 2F ;
1050    84 A0 35 14 A0 2D B4 A0      1A 64 AF FF 44 AF E2 84 ;
1060    AF CB 64 AF BF F4 AF C3      D4 AF D7 14 AF F5 E4 A0 ;
1070    19 44 A0 38 C4 A0 4C 14      A0 4D A4 A0 3B C4 A0 19 ;
1080    A4 AF EE 94 AF C4 D4 AF      A6 E4 AF 9D 34 AF AB B4 ;
1090    AF D0 94 A0 04 64 A0 3B      44 A0 67 A4 A0 7D 84 A0 ;
10A0    75 74 A0 4E E4 A0 10 D4      AF C8 94 AF 87 84 AF 5E ;
10B0    B4 AF 5A D4 AF 80 D4 AF      CB C4 A0 2C F4 A0 8E 94 ;
10C0    A0 D7 E4 A0 F3 54 A0 D3      44 A0 76 F4 AF EB E4 AF ;
10D0    4D 24 AE BE E4 AE 68 54      AE 6B F4 AE E0 04 AF C9 ;
10E0    34 A1 17 D4 A2 A9 14 A4      4B F4 A5 C8 84 A6 E9 A4 ;
10F0    A7 85 94 36 70 01 39 E4      31 38 00 15 3C 0D 25 16 ;

;;;     0  1  2  3  4  5  6  7       8  9  A  B  C  D  E  F
1100    94 7E 60 00 A4 58 00 A5      37 FF F4 09 00 04 3C 0D ;
1110    25 16 94 DE 60 00 A4 58      00 A5 8B 3D D1 87 3D E1 ;
1120    87 3D F4 8B 3E 05 83 3D      9A 0D 04 FA 4F FF FA 38 ;
1130    86 E2 18 68 4F 83 3E 9A      22 7A 0F 1A 96 90 82 FD ;
1140    2A 22 E2 1F 1A 96 93 82      FC 51 40 00 25 26 E9 0F ;
1150    1A 96 50 40 00 65 26 E9      0F 1A 96 70 1A 96 9F 1E ;
1160    96 AF 1A 96 9F 1E A6 7F      1A 96 9F 0A 00 0F 40 F0 ;
1170    0A 93 3E EA 34 F0 00 34      00 14 3C 10 05 40 00 0A ;
1180    34 00 7F 16 97 2E 68 00      A0 34 00 0F 39 D4 30 38 ;
1190    00 14 40 00 0A 58 00 A0      4F FF FA 58 00 A0 4F FF ;
11A0    DA 58 00 A0 4F FF BA 58      00 A0 4F FF 9A 58 00 A0 ;
11B0    4F FF 8A 58 00 A0 4F FF      9A 58 00 A0 4F FF DA 58 ;
11C0    00 A0 40 00 1A 58 00 A0      40 00 9A 58 00 A0 40 01 ;
11D0    1A 58 00 A0 40 01 8A 58      00 A0 40 01 AA 58 00 A0 ;
11E0    40 01 7A 58 00 A0 40 00      EA 58 00 A0 40 00 0A 58 ;
11F0    00 A0 4F FE FA 58 00 A0      4F FD CA 58 00 A0 4F FC ;

;;;     0  1  2  3  4  5  6  7       8  9  A  B  C  D  E  F
1200    CA 58 00 A0 4F FC 4A 58      00 A0 4F FC 6A 58 00 A0 ;
1210    4F FD 6A 58 00 A0 4F FF      2A 58 00 A0 40 01 4A 58 ;
1220    00 A0 40 03 EA 58 00 A0      40 06 3A 58 00 A0 40 07 ;
1230    BA 58 00 A0 40 07 FA 58      00 A0 40 06 AA 58 00 A0 ;
1240    40 03 BA 58 00 A0 4F FF      9A 58 00 A0 4F FA AA 58 ;
1250    00 A0 4F F5 DA 58 00 A0      4F F2 4A 58 00 A0 4F F0 ;
1260    CA 58 00 A0 4F F2 1A 58      00 A0 4F F6 6A 58 00 A0 ;
1270    4F FD 7A 58 00 A0 40 06      1A 58 00 A0 40 0F 3A 58 ;
1280    00 A0 40 16 FA 58 00 A0      40 1B 7A 58 00 A0 40 1B ;
1290    5A 58 00 A0 40 15 BA 58      00 A0 40 0A BA 58 00 A0 ;
12A0    4F FB 9A 58 00 A0 4F EA      2A 58 00 A0 4F D9 7A 58 ;
12B0    00 A0 4F CC FA 58 00 A0      4F C7 FA 58 00 A0 4F CD ;
12C0    3A 58 00 A0 4F DE 6A 58      00 A0 4F FB BA 58 00 A0 ;
12D0    40 23 AA 58 00 A0 40 53      9A 58 00 A0 40 87 0A 58 ;
12E0    00 A0 40 B8 FA 58 00 A0      40 E4 3A 58 00 A0 41 04 ;
12F0    0A 58 00 A0 41 14 EA 58      00 A0 41 14 EA 58 00 A0 ;

;;;     0  1  2  3  4  5  6  7       8  9  A  B  C  D  E  F
1300    41 04 0A 58 00 A0 40 E4      3A 58 00 A0 40 B8 FA 58 ;
1310    00 A0 40 87 0A 58 00 A0      40 53 9A 58 00 A0 40 23 ;
1320    AA 58 00 A0 4F FB BA 58      00 A0 4F DE 6A 58 00 A0 ;
1330    4F CD 3A 58 00 A0 4F C7      FA 58 00 A0 4F CC FA 58 ;
1340    00 A0 4F D9 7A 58 00 A0      4F EA 2A 58 00 A0 4F FB ;
1350    9A 58 00 A0 40 0A BA 58      00 A0 40 15 BA 58 00 A0 ;
1360    40 1B 5A 58 00 A0 40 1B      7A 58 00 A0 40 16 FA 58 ;
1370    00 A0 40 0F 3A 58 00 A0      40 06 1A 58 00 A0 4F FD ;
1380    7A 58 00 A0 4F F6 6A 58      00 A0 4F F2 1A 58 00 A0 ;
1390    4F F0 CA 58 00 A0 4F F2      4A 58 00 A0 4F F5 DA 58 ;
13A0    00 A0 4F FA AA 58 00 A0      4F FF 9A 58 00 A0 40 03 ;
13B0    BA 58 00 A0 40 06 AA 58      00 A0 40 07 FA 58 00 A0 ;
13C0    40 07 BA 58 00 A0 40 06      3A 58 00 A0 40 03 EA 58 ;
13D0    00 A0 40 01 4A 58 00 A0      4F FF 2A 58 00 A0 4F FD ;
13E0    6A 58 00 A0 4F FC 6A 58      00 A0 4F FC 4A 58 00 A0 ;
13F0    4F FC CA 58 00 A0 4F FD      CA 58 00 A0 4F FE FA 58 ;

;;;     0  1  2  3  4  5  6  7       8  9  A  B  C  D  E  F
1400    00 A0 40 00 0A 58 00 A0      40 00 EA 58 00 A0 40 01 ;
1410    7A 58 00 A0 40 01 AA 58      00 A0 40 01 8A 58 00 A0 ;
1420    40 01 1A 58 00 A0 40 00      9A 58 00 A0 40 00 1A 58 ;
1430    00 A0 4F FF DA 58 00 A0      4F FF 9A 58 00 A0 4F FF ;
1440    8A 58 00 A0 4F FF 9A 58      00 A0 4F FF BA 58 00 A0 ;
1450    4F FF DA 58 00 A0 4F FF      FA 58 00 A0 40 00 0A 58 ;
1460    00 A0 0A 00 0F 40 F0 0A      93 3E EA 34 F0 00 34 00 ;
1470    14 3C 10 05 40 00 0A 34      00 7F 16 A6 FE 68 00 A0 ;
1480    34 00 0F 39 D4 30 38 00      14 4F FF BA 58 00 A0 4F ;
1490    FF 1A 58 00 A0 4F FE 6A      58 00 A0 4F FE FA 58 00 ;
14A0    A0 40 00 9A 58 00 A0 40      02 DA 58 00 A0 40 03 6A ;
14B0    58 00 A0 40 01 1A 58 00      A0 4F FC AA 58 00 A0 4F ;
14C0    F8 9A 58 00 A0 4F F9 2A      58 00 A0 40 00 0A 58 00 ;
14D0    A0 40 0A 5A 58 00 A0 40      10 6A 58 00 A0 40 0B 2A ;
14E0    58 00 A0 4F FA 7A 58 00      A0 4F E7 8A 58 00 A0 4F ;
14F0    E1 9A 58 00 A0 4F F2 BA      58 00 A0 40 15 4A 58 00 ;

;;;     0  1  2  3  4  5  6  7       8  9  A  B  C  D  E  F
1500    A0 40 33 9A 58 00 A0 40      32 EA 58 00 A0 40 07 7A ;
1510    58 00 A0 4F C3 2A 58 00      A0 4F 92 8A 58 00 A0 4F ;
1520    A8 2A 58 00 A0 40 1C 8A      58 00 A0 40 DA 1A 58 00 ;
1530    A0 41 9F 7A 58 00 A0 42      1D 1A 58 00 A0 42 1D 1A ;
1540    58 00 A0 41 9F 7A 58 00      A0 40 DA 1A 58 00 A0 40 ;
1550    1C 8A 58 00 A0 4F A8 2A      58 00 A0 4F 92 8A 58 00 ;
1560    A0 4F C3 2A 58 00 A0 40      07 7A 58 00 A0 40 32 EA ;
1570    58 00 A0 40 33 9A 58 00      A0 40 15 4A 58 00 A0 4F ;
1580    F2 BA 58 00 A0 4F E1 9A      58 00 A0 4F E7 8A 58 00 ;
1590    A0 4F FA 7A 58 00 A0 40      0B 2A 58 00 A0 40 10 6A ;
15A0    58 00 A0 40 0A 5A 58 00      A0 40 00 0A 58 00 A0 4F ;
15B0    F9 2A 58 00 A0 4F F8 9A      58 00 A0 4F FC AA 58 00 ;
15C0    A0 40 01 1A 58 00 A0 40      03 6A 58 00 A0 40 02 DA ;
15D0    58 00 A0 40 00 9A 58 00      A0 4F FE FA 58 00 A0 4F ;
15E0    FE 6A 58 00 A0 4F FF 1A      58 00 A0 4F FF BA 58 00 ;
15F0    A0 0A 00 0F 1A AE DF 83      3E 9A 22 7A 0F 1A B6 10 ;

;;;     0  1  2  3  4  5  6  7       8  9  A  B  C  D  E  F
1600    82 FD 2A 22 7A 0F 1A B7      C0 82 FC 51 26 E1 5F 1A ;
1610    AF 90 22 E1 5F 22 E2 9F      1A B7 C1 0D 01 AF 93 3D ;
1620    9A 34 00 0F 97 3D D3 34      80 08 34 00 0B 37 FF E4 ;
1630    34 00 15 37 FF F7 87 26      D0 36 70 03 3C 04 05 16 ;
1640    B0 7E 60 00 A0 68 00 AD      34 00 08 34 00 7F 36 70 ;
1650    03 1E BC 0F 37 FF F7 34      00 15 35 C0 02 34 00 0A ;
1660    34 00 09 82 FC 51 22 E1      5F 22 E2 9F 1A B3 50 04 ;
1670    00 40 83 3D AA 22 7A 0F      1A B1 E0 42 2F FA 93 3D ;
1680    8A 40 00 0A 93 3D AA 1A      B2 2F 42 6F FA 93 3D 8A ;
1690    40 00 1A 93 3D AA 87 3D      81 3C 00 35 16 B2 AE 60 ;
16A0    00 09 83 3D BA 22 7A 0F      22 78 01 68 00 A7 68 00 ;
16B0    07 04 00 60 3C 17 D5 16      B3 3E 60 00 09 83 3D BA ;
16C0    22 7A 0F 22 78 01 68 00      A7 68 00 07 1A B5 4F 04 ;
16D0    00 40 83 3D AA 22 7A 0F      1A B3 E0 42 17 FA 93 3D ;
16E0    8A 40 00 0A 93 3D AA 1A      B4 2F 42 57 FA 93 3D 8A ;
16F0    40 00 1A 93 3D AA 87 3D      81 3C 00 35 16 B4 AE 60 ;

;;;     0  1  2  3  4  5  6  7       8  9  A  B  C  D  E  F
1700    00 09 83 3D BA 22 7A 0F      22 78 01 68 00 A7 68 00 ;
1710    07 04 00 60 3C 0B D5 16      B5 3E 60 00 09 83 3D BA ;
1720    22 7A 0F 22 78 01 68 00      A7 68 00 07 37 FF E4 87 ;
1730    3D D3 34 00 08 34 00 09      34 00 0A 34 00 15 34 00 ;
1740    06 37 FF F7 38 00 15 38      00 06 83 3D 9A 0D 04 FA ;
1750    1A B7 CF 83 3D BA 22 7A      0F 1A B7 C0 82 FD 2A 22 ;
1760    7A 0F 1A B7 C0 82 FC 51      26 E1 5F 1A B6 D0 22 E1 ;
1770    5F 22 E2 9F 1A B7 C1 97      3D D0 97 3D E4 97 3D F8 ;
1780    34 80 08 87 3E 70 37 F8      14 09 00 00 34 00 14 3C ;
1790    04 05 16 B7 8E 60 00 A0      68 00 A0 87 3D D0 87 3D ;
17A0    E4 87 3D F8 83 28 AA 38      A2 82 18 68 4F 1A B8 0F ;
17B0    83 3E 9A 22 7A 0F 1A BA      90 82 FD 2A 22 7A 0F 1A ;
17C0    BA 90 82 FC 51 26 E1 5F      1A BA 91 0D 01 AF 93 3D ;
17D0    9A 34 00 0F 83 26 E0 0D      04 00 83 26 F0 0D 04 10 ;
17E0    83 27 30 0D 04 80 0D 01      11 34 80 09 37 FF F4 34 ;
17F0    00 17 3C 04 05 16 B9 AE      60 00 A3 68 00 A4 68 00 ;

;;;     0  1  2  3  4  5  6  7       8  9  A  B  C  D  E  F
1800    A4 0D 01 A0 93 26 EA 0D      01 A1 93 26 FA 09 00 04 ;
1810    0D 01 A1 93 27 1A 83 3D      9A 0D 04 FA 37 FF F7 34 ;
1820    00 08 34 00 09 38 B0 92      18 68 4F 83 3D BA 22 7A ;
1830    0F 1A BB D0 82 FC 51 26      E1 5F 1A BB 30 40 00 65 ;
1840    26 E9 0F 1A BB 30 1A BB      DF 87 26 E0 87 27 11 34 ;
1850    80 09 85 35 34 3C 04 05      16 BB AE 60 00 01 68 00 ;
1860    04 97 27 11 34 00 09 83      24 37 38 AF 22 18 68 4F ;
1870    37 FF F7 87 3D C2 35 C0      01 34 00 09 60 00 1D 34 ;
1880    04 6A 0D 05 8A 0D 05 02      68 00 19 39 E4 31 0D 0A ;
1890    01 0D 0A 21 82 FC 51 22      E1 5F 22 E2 9F 1A BD 30 ;
18A0    38 00 15 40 00 60 1A BD      5F 38 00 25 40 00 30 38 ;
18B0    00 66 0C 30 00 3C 04 05      40 04 54 16 BD FE 1E BE ;
18C0    3F 60 00 1D 0D 05 02 68      00 19 0D 0A 21 0D 0A 01 ;
18D0    09 00 0B 97 3D C2 0A 00      0F 0D 0C 50 E8 00 23 09 ;
18E0    00 19 16 BF 1E 20 98 0F      0D 0C 54 16 BE AE E9 00 ;
18F0    23 0D 0A 02 09 00 19 E9      00 23 05 00 00 0F 24 01 ;

;;;     0  1  2  3  4  5  6  7       8  9  A  B  C  D  E  F
1900    0F 1B 01 68 00 F5 0A 00      0F 1A BF 4F 00 00 00 83 ;
1910    3E 9A 26 7A 0F 1A C0 80      82 FD 2A 22 7A 0F 1A C0 ;
1920    80 82 FC 51 26 E1 5F 1A      C0 20 22 E1 5F 22 E2 9F ;
1930    1A C0 50 1A C0 8F 8B 3D      83 38 30 0B 1A C0 BF 8B ;
1940    3D 83 38 18 0B 1A C0 BF      8B 26 D3 81 35 28 0D 08 ;
1950    B8 38 4F 62 18 68 4F 1A      C0 EF 23 88 0F 40 00 25 ;
1960    2A EA AA 1A C3 20 40 03      C5 2A EA AA 1A C5 D0 40 ;
1970    03 D5 2A EA AA 1A C4 C0      40 03 35 2A EA AA 1A C2 ;
1980    70 40 03 E5 2A EA AA 1A      C2 30 40 03 F5 2A EA AA ;
1990    1A C5 30 38 19 62 18 68      4F 1C 0B 1F 93 3D BA 38 ;
19A0    35 D2 18 68 4F 34 EF 60      1C 1E DF 83 30 EA 22 7A ;
19B0    0F 1A C2 E1 93 30 EE 93      32 0E 34 EE D0 1C 1E DF ;
19C0    38 35 D2 18 68 4F 34 00      67 09 00 03 1C 0B 1F 68 ;
19D0    00 A1 3C 00 45 16 C3 9E      1C 0B 1F 68 00 A1 95 34 ;
19E0    D6 82 FC 5A 93 3E 85 40      00 65 2A EA AA 1A C4 11 ;
19F0    95 34 D5 83 3E 85 82 FE      DA 22 7A 0F 1A C4 A4 04 ;

;;;     0  1  2  3  4  5  6  7       8  9  A  B  C  D  E  F
1A00    00 40 82 FE DA 82 FE B0      1C 60 DF 04 00 60 38 35 ;
1A10    D2 18 68 4F 1C 0B 1F 93      3E 9A 93 3D BA 93 3F 2A ;
1A20    94 EE D6 38 35 D2 18 68      4F 1C 0B 1F 83 FF FA 23 ;
1A30    9A 3F 23 92 FF 93 FF FA      83 FF 2A 23 9A 0F 93 FF ;
1A40    2A 38 35 D2 18 68 4F 1C      0B 1F 83 FF FA 23 9A 3F ;
1A50    23 92 FF 93 FF FA 38 35      D2 18 68 4F 1A C6 5F 82 ;
1A60    FC 70 40 00 F4 23 80 0F      40 00 D4 22 E2 0F 1A C6 ;
1A70    D1 40 00 94 93 28 64 83      28 94 40 20 00 22 E0 0F ;
1A80    83 3E A4 22 E2 0F 40 0C      04 22 E2 0F 1A C6 24 83 ;
1A90    29 8A 22 EA DF 3A 38 E2      18 68 44 0D 00 BA 83 3E ;
1AA0    AA 22 6A DF 93 3E AA 0D      00 AB 3A 36 C2 18 68 4F ;
1AB0    1A C8 1F 38 A3 C2 83 3E      AA 22 EA DF 93 3E AA 22 ;
1AC0    69 0F 93 28 9A 18 68 4F      1A C8 9F 83 FC 0E 27 9E ;
1AD0    5F 1A C9 40 04 00 40 40      00 7A 81 50 30 81 50 41 ;
1AE0    81 50 55 1C 60 DF 04 00      60 1A C6 2F 3A 02 62 22 ;
1AF0    E2 0F 18 68 45 96 FF 06      1A C6 2F 1A C9 AF 83 23 ;

;;;     0  1  2  3  4  5  6  7       8  9  A  B  C  D  E  F
1B00    F7 38 90 42 83 3E 9A 26      7A 0F 18 68 40 82 FD 2A ;
1B10    22 E2 1F 18 68 43 8B 27      D2 8B 26 03 87 25 C0 87 ;
1B20    25 D1 87 3E D2 0D 05 30      34 20 08 34 08 09 34 30 ;
1B30    0A 34 20 0B 34 00 14 37      FF E7 1E D1 DF 83 3E 9A ;
1B40    22 7A 0F 1A CC 10 82 FC      51 40 00 25 26 E9 0F 1A ;
1B50    CB A0 40 00 65 26 E9 0F      1A CB A0 1A CC 1F 3C 04 ;
1B60    05 16 CB FE 60 00 AF 34      00 7F 68 00 A8 34 00 0F ;
1B70    97 3E D2 97 25 D1 97 25      C0 83 36 8C 27 84 5F 1A ;
1B80    CC 91 83 25 60 2A 78 AA      1A CD 30 83 24 09 83 24 ;
1B90    17 8B 26 03 87 25 E0 87      25 F1 34 00 14 37 FF E7 ;
1BA0    1E D1 DF 97 25 F1 97 25      E0 34 00 08 34 00 09 34 ;
1BB0    00 0A 34 00 0B 04 00 40      00 00 00 83 28 1A 22 6A ;
1BC0    9F 93 28 1A 04 00 60 83      3E 9A 22 7A 0F 1A D1 90 ;
1BD0    82 FC 51 40 00 25 26 E9      0F 1A CE 80 40 00 65 26 ;
1BE0    E9 0F 1A D0 40 1A D1 9F      83 3E BA 22 62 1F 93 3E ;
1BF0    BA 38 35 D2 40 00 65 22      EA 0F 18 68 41 97 3E B6 ;

;;;     0  1  2  3  4  5  6  7       8  9  A  B  C  D  E  F
1C00    87 25 D1 34 04 07 34 08      09 09 00 07 97 25 D1 87 ;
1C10    3E C2 87 25 D1 34 30 0A      34 08 09 37 FC 07 09 00 ;
1C20    07 97 3E F0 97 3F 03 9B      3F 10 1E D5 6F 87 3E F0 ;
1C30    87 3F 03 8B 3F 10 97 3E      C2 1A D1 9F 83 3E BA 22 ;
1C40    62 1F 93 3E BA 38 35 D2      22 62 7F 18 68 41 97 3E ;
1C50    B6 87 25 D1 87 3E C2 34      08 09 34 30 0A 37 FC 07 ;
1C60    09 00 07 97 3E F0 97 3F      03 9B 3F 10 1E D2 2F 87 ;
1C70    3E F0 87 3F 03 8B 3F 10      97 3E C2 34 00 09 34 00 ;
1C80    0A 38 92 72 18 68 4F 3C      04 05 16 D2 0E 60 00 23 ;
1C90    68 00 24 0A 00 0F 34 00      14 87 3E E3 34 03 CB 34 ;
1CA0    03 C8 38 00 08 37 FF D7      38 00 34 3C 04 05 16 D4 ;
1CB0    CE 34 00 7F 3C 00 35 16      D2 FE 60 00 A8 68 00 AC ;
1CC0    34 00 7F 20 98 0F 0D 05      03 37 FF E5 09 00 01 39 ;
1CD0    D4 50 3C 01 45 E8 00 03      16 D3 9E E9 00 03 0D 05 ;
1CE0    03 37 FF F5 09 00 01 39      D4 40 3C 01 45 E8 00 03 ;
1CF0    16 D4 1E E9 00 03 0D 05      03 34 00 05 09 00 01 39 ;

;;;     0  1  2  3  4  5  6  7       8  9  A  B  C  D  E  F
1D00    D4 30 3C 01 45 E8 00 03      16 D4 9E E9 00 03 05 00 ;
1D10    00 34 00 0F 68 00 C4 97      3E E3 34 00 0B 34 00 08 ;
1D20    34 00 15 34 00 06 38 00      06 3B FF F7 34 00 0F 0A ;
1D30    00 0F 34 00 14 39 D4 30      38 00 14 87 3E E3 34 07 ;
1D40    8B 34 07 88 38 00 08 37      FF A7 38 00 64 3C 04 05 ;
1D50    16 D9 AE 34 00 7F 3C 00      65 16 D6 5E 60 00 A8 68 ;
1D60    00 AC 34 00 7F 20 98 0F      0D 05 03 37 FF B5 09 00 ;
1D70    01 39 D4 80 3C 01 45 E8      00 03 16 D6 FE E9 00 03 ;
1D80    0D 05 03 37 FF C5 09 00      01 39 D4 70 3C 01 45 E8 ;
1D90    00 03 16 D7 7E E9 00 03      0D 05 03 37 FF D5 09 00 ;
1DA0    01 39 D4 60 3C 01 45 E8      00 03 16 D7 FE E9 00 03 ;
1DB0    0D 05 03 37 FF E5 09 00      01 39 D4 50 3C 01 45 E8 ;
1DC0    00 03 16 D8 7E E9 00 03      0D 05 03 37 FF F5 09 00 ;
1DD0    01 39 D4 40 3C 01 45 E8      00 03 16 D8 FE E9 00 03 ;
1DE0    0D 05 03 34 00 05 09 00      01 39 D4 30 3C 01 45 E8 ;
1DF0    00 03 16 D9 7E E9 00 03      05 00 00 34 00 0F 68 00 ;

;;;     0  1  2  3  4  5  6  7       8  9  A  B  C  D  E  F
1E00    C4 97 3E E3 34 00 0B 34      00 08 34 00 15 34 00 06 ;
1E10    38 00 06 3B FF F7 34 00      0F 0A 00 0F 1A DA 5F 0D ;
1E20    00 0A 81 51 8A 23 82 DF      1A DB 50 40 00 0A 93 28 ;
1E30    AA 93 28 9A 93 29 8A 44      00 0A 91 35 5A 36 00 00 ;
1E40    3C 80 05 16 DB 2E A0 00      01 38 49 12 18 68 4F 93 ;
1E50    FF F0 38 49 12 18 68 4F      1A DB 9F 81 52 8A 22 7A ;
1E60    0F 1A DC 00 35 BF 20 3C      04 05 16 DB FE A0 00 01 ;
1E70    83 36 9A 3A 83 22 18 68      8F 1A DC 4F 49 CF 94 2A ;
1E80    E2 AA 1A DC C0 49 CF D4      2A E2 AA 1A DC C0 38 D8 ;
1E90    82 18 68 8F 34 80 08 34      80 09 83 29 8A 22 72 9F ;
1EA0    93 29 8A 87 29 40 87 29      51 94 80 81 94 80 90 34 ;
1EB0    00 6F 3C 40 05 16 DD 9E      A0 00 01 A0 00 05 34 00 ;
1EC0    7F 97 29 40 97 29 51 34      00 08 34 00 09 38 DA 62 ;
1ED0    18 68 8F 90 00 00 18 01      00 08 C1 A0 29 D0 00 01 ;
1EE0    00 00 43 D1 00 01 00 00      43 D2 00 01 00 00 43 99 ;
1EF0    66 00 00 